%YAML 1.1
%TAG !u! tag:unity3d.com,2011:
--- !u!114 &11400000
MonoBehaviour:
  m_ObjectHideFlags: 0
  m_CorrespondingSourceObject: {fileID: 0}
  m_PrefabInternal: {fileID: 0}
  m_GameObject: {fileID: 0}
  m_Enabled: 1
  m_EditorHideFlags: 0
  m_Script: {fileID: 11500000, guid: 1a28063abc61de64b85bc8c117f35b71, type: 3}
  m_Name: EvacuateGameBoss
  m_EditorClassIdentifier: 
  Difficulty: 4
  TypeOfGame: 0
  time: 30
