%YAML 1.1
%TAG !u! tag:unity3d.com,2011:
--- !u!181963792 &2655988077585873504
Preset:
  m_ObjectHideFlags: 0
  m_CorrespondingSourceObject: {fileID: 0}
  m_PrefabInternal: {fileID: 0}
  m_Name: MinigameManager_FinishedSetup
  m_TargetType:
    m_NativeTypeID: 114
    m_ManagedTypePPtr: {fileID: 11500000, guid: aae7c65a208b7fa4e9095650d5ee158e,
      type: 3}
    m_ManagedTypeFallback: 
  m_Properties:
  - target: {fileID: 0}
    propertyPath: m_Enabled
    value: 1
    objectReference: {fileID: 0}
  - target: {fileID: 0}
    propertyPath: m_EditorHideFlags
    value: 0
    objectReference: {fileID: 0}
  - target: {fileID: 0}
    propertyPath: m_Name
    value: 
    objectReference: {fileID: 0}
  - target: {fileID: 0}
    propertyPath: m_EditorClassIdentifier
    value: 
    objectReference: {fileID: 0}
  - target: {fileID: 0}
    propertyPath: LevelIntervals.Array.size
    value: 0
    objectReference: {fileID: 0}
  - target: {fileID: 0}
    propertyPath: Minigames.Array.size
    value: 14
    objectReference: {fileID: 0}
  - target: {fileID: 0}
    propertyPath: Minigames.Array.data[0]
    value: 
    objectReference: {fileID: 0}
  - target: {fileID: 0}
    propertyPath: Minigames.Array.data[1]
    value: 
    objectReference: {fileID: 0}
  - target: {fileID: 0}
    propertyPath: Minigames.Array.data[2]
    value: 
    objectReference: {fileID: 0}
  - target: {fileID: 0}
    propertyPath: Minigames.Array.data[3]
    value: 
    objectReference: {fileID: 0}
  - target: {fileID: 0}
    propertyPath: Minigames.Array.data[4]
    value: 
    objectReference: {fileID: 0}
  - target: {fileID: 0}
    propertyPath: Minigames.Array.data[5]
    value: 
    objectReference: {fileID: 0}
  - target: {fileID: 0}
    propertyPath: Minigames.Array.data[6]
    value: 
    objectReference: {fileID: 0}
  - target: {fileID: 0}
    propertyPath: Minigames.Array.data[7]
    value: 
    objectReference: {fileID: 0}
  - target: {fileID: 0}
    propertyPath: Minigames.Array.data[8]
    value: 
    objectReference: {fileID: 0}
  - target: {fileID: 0}
    propertyPath: Minigames.Array.data[9]
    value: 
    objectReference: {fileID: 0}
  - target: {fileID: 0}
    propertyPath: Minigames.Array.data[10]
    value: 
    objectReference: {fileID: 0}
  - target: {fileID: 0}
    propertyPath: Minigames.Array.data[11]
    value: 
    objectReference: {fileID: 0}
  - target: {fileID: 0}
    propertyPath: Minigames.Array.data[12]
    value: 
    objectReference: {fileID: 0}
  - target: {fileID: 0}
    propertyPath: Minigames.Array.data[13]
    value: 
    objectReference: {fileID: 0}
  - target: {fileID: 0}
    propertyPath: BossMinigames.Array.size
    value: 1
    objectReference: {fileID: 0}
  - target: {fileID: 0}
    propertyPath: BossMinigames.Array.data[0]
    value: 
    objectReference: {fileID: 0}
  - target: {fileID: 0}
    propertyPath: PlayableMiniGames.Array.size
    value: 0
    objectReference: {fileID: 0}
