%YAML 1.1
%TAG !u! tag:unity3d.com,2011:
--- !u!114 &11400000
MonoBehaviour:
  m_ObjectHideFlags: 0
  m_CorrespondingSourceObject: {fileID: 0}
  m_PrefabInternal: {fileID: 0}
  m_GameObject: {fileID: 0}
  m_Enabled: 1
  m_EditorHideFlags: 0
  m_Script: {fileID: 11500000, guid: 69c4fb4d84eb35c4aa8f1daa02b27cd7, type: 3}
  m_Name: Dial911Hard
  m_EditorClassIdentifier: 
  Difficulty: 3
  TypeOfGame: 1
  time: 10
