%YAML 1.1
%TAG !u! tag:unity3d.com,2011:
--- !u!114 &11400000
MonoBehaviour:
  m_ObjectHideFlags: 0
  m_CorrespondingSourceObject: {fileID: 0}
  m_PrefabInternal: {fileID: 0}
  m_GameObject: {fileID: 0}
  m_Enabled: 1
  m_EditorHideFlags: 0
  m_Script: {fileID: 11500000, guid: dfe848bfe5580504aa87d2ca4bb3015e, type: 3}
  m_Name: DPTB_Hard
  m_EditorClassIdentifier: 
  Difficulty: 3
  TypeOfGame: 0
  time: 5
