# This file uses centimeters as units for non-parametric coordinates.

mtllib Laptop.mtl
g default
v -5.281601 0.498483 1.641368
v -10.403883 0.498483 1.641368
v -5.281601 0.498483 -1.641368
v -10.403883 0.498483 -1.641368
v -5.400726 0.736754 1.522245
v -5.281601 0.617630 1.641368
v -10.403883 0.617630 1.641368
v -10.284760 0.736754 1.522245
v -5.281601 0.617630 -1.641368
v -5.400726 0.736754 -1.522245
v -10.284760 0.736754 -1.522245
v -10.403883 0.617630 -1.641368
v -7.842743 0.736754 -1.408081
v -7.842742 0.617630 -1.527204
v -7.842742 0.498483 -1.527204
v -7.842742 0.498483 1.641368
v -7.842742 0.617630 1.641368
v -7.842743 0.736754 1.522245
v -7.133795 0.736754 -1.408081
v -7.133795 0.736754 1.522245
v -7.099211 0.617630 1.641368
v -7.099211 0.498483 1.641368
v -7.099211 0.498483 -1.527204
v -7.099211 0.617630 -1.527204
v -8.586273 0.617630 -1.527204
v -8.586273 0.498483 -1.527204
v -8.586273 0.498483 1.641368
v -8.586273 0.617630 1.641368
v -8.551690 0.736754 1.522245
v -8.551690 0.736754 -1.408081
v -10.403882 0.497026 1.641368
v -5.281600 0.497026 1.641368
v -10.403882 0.497026 -1.641368
v -5.281600 0.497026 -1.641368
v -10.284757 0.258755 1.522245
v -10.403882 0.377879 1.641368
v -5.281600 0.377879 1.641368
v -5.400724 0.258755 1.522245
v -10.403882 0.377879 -1.641368
v -10.284757 0.258755 -1.522245
v -5.400724 0.258755 -1.522245
v -5.281600 0.377879 -1.641368
vt 0.187266 0.501818
vt 0.187266 0.819813
vt 0.175724 0.819813
vt 0.175724 0.501818
vt 0.198805 0.513357
vt 0.198805 0.808274
vt 0.215934 0.501818
vt 0.215934 0.819813
vt 0.204392 0.819813
vt 0.204392 0.501818
vt 0.227473 0.808274
vt 0.227473 0.513357
vt 0.129926 0.819813
vt 0.129926 0.501818
vt 0.141468 0.501818
vt 0.141468 0.819813
vt 0.118387 0.808274
vt 0.118387 0.513357
vt 0.158595 0.819813
vt 0.158595 0.501818
vt 0.170136 0.501818
vt 0.170136 0.819813
vt 0.147055 0.513357
vt 0.147055 0.808274
vt 0.319810 0.322112
vt 0.319810 0.498182
vt 0.001814 0.498182
vt 0.012873 0.322112
vt 0.319810 0.250087
vt 0.012873 0.250087
vt 0.012873 0.178062
vt 0.319810 0.178062
vt 0.319810 0.001992
vt 0.001814 0.001992
vt 0.338344 0.318762
vt 0.622202 0.318762
vt 0.633261 0.486643
vt 0.338344 0.486643
vt 0.338344 0.250087
vt 0.622202 0.250087
vt 0.633741 0.322112
vt 0.644800 0.498182
vt 0.326805 0.322112
vt 0.326805 0.498182
vt 0.622202 0.181412
vt 0.338344 0.181412
vt 0.633741 0.250087
vt 0.326805 0.250087
vt 0.633741 0.178062
vt 0.326805 0.178062
vt 0.633261 0.013532
vt 0.338344 0.013532
vt 0.644800 0.001992
vt 0.326805 0.001992
vt 0.590902 0.998008
vt 0.590902 0.501818
vt 0.908898 0.501818
vt 0.908898 0.998008
vt 0.278858 0.986468
vt 0.278858 0.513357
vt 0.573775 0.513357
vt 0.573775 0.986468
vt 0.267319 0.998008
vt 0.267319 0.501817
vt 0.585315 0.998008
vt 0.585315 0.501817
vt 0.663159 0.322112
vt 0.663159 0.498182
vt 0.651617 0.498182
vt 0.651617 0.322112
vt 0.663159 0.250087
vt 0.651617 0.250087
vt 0.651617 0.178062
vt 0.663159 0.178062
vt 0.663159 0.001992
vt 0.651617 0.001992
vt 0.680908 0.322112
vt 0.680908 0.498182
vt 0.669367 0.498182
vt 0.669367 0.322112
vt 0.680908 0.250087
vt 0.669367 0.250087
vt 0.669367 0.178062
vt 0.680908 0.178062
vt 0.680908 0.001992
vt 0.669367 0.001992
vt 0.250190 0.998008
vt 0.250190 0.501818
vt 0.261732 0.501818
vt 0.261732 0.998008
vt 0.233061 0.998008
vt 0.233061 0.501818
vt 0.244602 0.501818
vt 0.244602 0.998008
vn 0.000000 -1.000000 0.000000
vn 0.000000 -1.000000 0.000000
vn 0.000000 -1.000000 0.000000
vn 0.000000 -1.000000 0.000000
vn 0.707102 0.707112 0.000000
vn 0.707102 0.707112 0.000000
vn 0.707102 0.707112 0.000000
vn 0.707102 0.707112 0.000000
vn 0.000000 0.707106 0.707107
vn 0.000000 0.707106 0.707107
vn 0.000000 0.707106 0.707107
vn 0.000000 0.707106 0.707107
vn -0.707106 0.707108 0.000000
vn -0.707105 0.707108 0.000000
vn -0.707105 0.707108 0.000000
vn -0.707106 0.707108 0.000000
vn 0.029744 0.697133 -0.716324
vn 0.035298 0.695188 -0.717961
vn 0.046374 0.691228 -0.721147
vn 0.046374 0.691228 -0.721148
vn 0.000000 0.000000 1.000000
vn 0.000000 0.000000 1.000000
vn 0.000000 0.000000 1.000000
vn 0.000000 0.000000 1.000000
vn 0.044531 0.000000 -0.999008
vn 0.062687 0.000000 -0.998033
vn 0.062687 0.000000 -0.998033
vn 0.044531 0.000000 -0.999008
vn 0.000000 1.000000 0.000000
vn 0.000000 1.000000 0.000000
vn 0.000000 1.000000 0.000000
vn 0.000000 1.000000 0.000000
vn -1.000000 0.000000 0.000000
vn -1.000000 0.000000 0.000000
vn -1.000000 0.000000 0.000000
vn -1.000000 0.000000 0.000000
vn 1.000000 0.000000 0.000000
vn 1.000000 0.000000 0.000000
vn 1.000000 0.000000 0.000000
vn 1.000000 0.000000 0.000000
vn -0.046374 0.691227 -0.721148
vn -0.046374 0.691227 -0.721148
vn -0.035298 0.695187 -0.717962
vn -0.029744 0.697133 -0.716324
vn -0.062687 0.000000 -0.998033
vn -0.044531 0.000000 -0.999008
vn -0.044531 0.000000 -0.999008
vn -0.062687 0.000000 -0.998033
vn 0.000000 -1.000000 0.000000
vn 0.000000 -1.000000 0.000000
vn 0.000000 -1.000000 0.000000
vn 0.000000 -1.000000 0.000000
vn 0.000000 0.000000 1.000000
vn 0.000000 0.000000 1.000000
vn 0.000000 0.000000 1.000000
vn 0.000000 0.000000 1.000000
vn 0.000000 0.707106 0.707108
vn 0.000000 0.707106 0.707108
vn 0.000000 0.707106 0.707108
vn 0.000000 0.707106 0.707108
vn 0.000000 1.000000 0.000000
vn 0.000000 1.000000 0.000000
vn 0.000000 1.000000 0.000000
vn 0.000000 1.000000 0.000000
vn 0.000000 1.000000 0.000000
vn 0.000000 1.000000 0.000000
vn 0.000000 0.707106 0.707107
vn 0.000000 0.707106 0.707107
vn 0.000000 0.000000 1.000000
vn 0.000000 0.000000 1.000000
vn 0.000000 -1.000000 0.000000
vn 0.000000 -1.000000 0.000000
vn 0.000000 0.000000 -1.000000
vn 0.000000 0.000000 -1.000000
vn 0.000000 0.707106 -0.707107
vn 0.000000 0.707106 -0.707107
vn 0.000000 1.000000 0.000000
vn 0.000000 1.000000 0.000000
vn 0.000000 1.000000 0.000000
vn 0.000000 1.000000 0.000000
vn -0.707100 -0.707113 0.000000
vn -0.707100 -0.707113 0.000000
vn -0.707100 -0.707113 0.000000
vn -0.707100 -0.707113 0.000000
vn 0.000000 -0.707106 0.707108
vn 0.000000 -0.707106 0.707107
vn 0.000000 -0.707106 0.707107
vn 0.000000 -0.707106 0.707107
vn 0.707105 -0.707108 0.000000
vn 0.707105 -0.707108 0.000000
vn 0.707105 -0.707108 0.000000
vn 0.707105 -0.707108 0.000000
vn 0.000000 -0.707106 -0.707107
vn 0.000000 -0.707106 -0.707108
vn 0.000000 -0.707106 -0.707107
vn 0.000000 -0.707106 -0.707107
vn 0.000000 0.000000 1.000000
vn 0.000000 0.000000 1.000000
vn 0.000000 0.000000 1.000000
vn 0.000000 0.000000 1.000000
vn 0.000000 0.000000 -1.000000
vn 0.000000 0.000000 -1.000000
vn 0.000000 0.000000 -1.000000
vn 0.000000 0.000000 -1.000000
vn 0.000000 -1.000000 0.000000
vn 0.000000 -1.000000 0.000000
vn 0.000000 -1.000000 0.000000
vn 0.000000 -1.000000 0.000000
vn 1.000000 0.000000 0.000000
vn 1.000000 0.000000 0.000000
vn 1.000000 0.000000 0.000000
vn 1.000000 0.000000 0.000000
vn -1.000000 0.000000 0.000000
vn -1.000000 0.000000 0.000000
vn -1.000000 0.000000 0.000000
vn -1.000000 0.000000 0.000000
s 1
g CannedFoods:CannedFoods:CannedFoods:pCube13
usemtl CannedFoods:CannedFoods:lambert18SG
f 27/25/1 2/26/2 4/27/3 26/28/4
s off
f 5/11/5 6/8/6 9/7/7 10/12/8
s 2
f 28/43/9 29/35/10 8/38/11 7/44/12
s off
f 7/1/13 8/5/14 11/6/15 12/2/16
s 3
f 30/36/17 25/41/18 12/42/19 11/37/20
s 4
f 28/67/21 7/68/22 2/69/23 27/70/24
s 5
f 26/77/25 4/78/26 12/79/27 25/80/28
s 6
f 29/35/29 30/36/30 11/37/31 8/38/32
s off
f 7/1/33 12/2/34 4/3/35 2/4/36
f 9/7/37 6/8/38 1/9/39 3/10/40
s 3
f 10/51/41 9/53/42 24/49/43 19/45/44
s 5
f 3/85/45 23/84/46 24/83/47 9/86/48
s 1
f 1/33/49 22/32/50 23/31/51 3/34/52
s 4
f 6/75/53 21/74/54 22/73/55 1/76/56
s 2
f 6/54/57 5/52/58 20/46/59 21/50/60
s 6
f 10/51/61 19/45/62 20/46/63 5/52/64
f 19/45/62 13/40/65 18/39/66 20/46/63
s 2
f 21/50/60 20/46/59 18/39/67 17/48/68
s 4
f 22/73/55 21/74/54 17/71/69 16/72/70
s 1
f 23/31/51 22/32/50 16/29/71 15/30/72
s 5
f 24/83/47 23/84/46 15/81/73 14/82/74
s 3
f 19/45/44 24/49/43 14/47/75 13/40/76
s 5
f 15/81/73 26/77/25 25/80/28 14/82/74
s 1
f 16/29/71 27/25/1 26/28/4 15/30/72
s 4
f 17/71/69 28/67/21 27/70/24 16/72/70
s 2
f 17/48/68 18/39/67 29/35/10 28/43/9
s 6
f 18/39/66 13/40/65 30/36/30 29/35/29
s 3
f 13/40/76 14/47/75 25/41/18 30/36/17
s off
f 31/55/77 32/56/78 34/57/79 33/58/80
f 35/23/81 36/20/82 39/19/83 40/24/84
f 36/65/85 35/62/86 38/61/87 37/66/88
f 37/13/89 38/17/90 41/18/91 42/14/92
f 40/59/93 39/63/94 42/64/95 41/60/96
f 36/87/97 37/88/98 32/89/99 31/90/100
f 33/91/101 34/92/102 42/93/103 39/94/104
f 40/59/105 41/60/106 38/61/107 35/62/108
f 37/13/109 42/14/110 34/15/111 32/16/112
f 39/19/113 36/20/114 31/21/115 33/22/116
