# This file uses centimeters as units for non-parametric coordinates.

mtllib Red_Car_Final.mtl
g default
v -0.010128 2.000559 19.261562
v 2.350300 2.000560 19.261562
v -0.010128 2.000559 16.315292
v 2.350300 2.000560 16.315292
v -3.624938 2.000559 16.315292
v -3.624938 2.000558 19.261562
v -0.010128 0.890707 16.315292
v 2.350300 0.890707 16.315292
v 2.350300 0.890707 19.261562
v -0.010128 0.890707 19.261562
v -3.624938 0.876553 19.261562
v -3.624938 0.876553 16.315292
v -6.722393 0.876553 16.315292
v -6.722393 0.876553 19.261562
v -4.821968 1.368585 19.261562
v -4.821968 1.368585 16.315292
v -5.297073 1.232879 19.261562
v -5.297073 1.232879 16.315292
v -4.346862 1.232879 19.261562
v -4.346862 1.232879 16.315292
v 1.072038 2.000560 19.261562
v 1.072038 2.000560 16.315292
v 1.072038 1.368585 16.315292
v 1.072038 1.368585 19.261562
v 0.617848 2.000560 19.261562
v 0.617848 2.000560 16.315292
v 0.617848 1.200952 16.315292
v 0.617848 1.200952 19.261562
v 1.526228 2.000560 19.261562
v 1.526228 2.000560 16.315292
v 1.526228 1.200952 16.315292
v 1.526228 1.200952 19.261562
v 0.390753 2.000560 19.261562
v 0.390753 2.000560 16.315292
v 0.390753 0.891499 16.315292
v 0.390753 0.891499 19.261562
v 1.753324 2.000560 19.261562
v 1.753324 2.000560 16.315292
v 1.753324 0.891499 16.315292
v 1.753324 0.891499 19.261562
v 0.844943 2.000560 19.261562
v 0.844943 2.000560 16.315292
v 0.844943 1.326701 16.315292
v 0.844943 1.326701 19.261562
v 1.299133 2.000560 19.261562
v 1.299133 2.000560 16.315292
v 1.299133 1.326701 16.315292
v 1.299133 1.326701 19.261562
v -5.524069 0.878907 19.261562
v -5.524069 0.878907 16.315292
v -4.119867 0.878907 19.261562
v -4.119867 0.878907 16.315292
v -4.821968 1.412687 16.683574
v -4.346862 1.412686 16.683574
v -4.119865 1.412687 16.683574
v -3.624938 1.412687 16.683574
v -0.010128 2.000559 16.683574
v 0.390753 2.000560 16.683574
v 0.617848 2.000560 16.683574
v 0.844943 2.000560 16.683574
v 1.072038 2.000560 16.683574
v 1.299133 2.000560 16.683574
v 1.526228 2.000560 16.683574
v 1.753324 2.000560 16.683574
v 2.350300 2.000560 16.683574
v 2.350300 0.890707 16.683574
v 1.753324 0.891499 16.683574
v 1.526228 1.200952 16.683574
v 1.299133 1.326701 16.683574
v 1.072038 1.368585 16.683574
v 0.844943 1.326701 16.683574
v 0.617848 1.200952 16.683574
v 0.390753 0.891499 16.683574
v -0.010128 0.890707 16.683574
v -3.624938 0.876553 16.683574
v -4.119867 0.878907 16.683574
v -4.346862 1.232879 16.683574
v -4.821968 1.368585 16.683574
v -5.297073 1.232879 16.683574
v -5.524069 0.878907 16.683574
v -6.722393 0.876553 16.683574
v -5.524071 1.412687 16.683574
v -5.297073 1.412687 16.683574
v -4.821968 1.412687 18.893276
v -4.346862 1.412686 18.893276
v -4.119865 1.412687 18.893276
v -3.624938 1.412687 18.893276
v -0.010128 2.000559 18.893276
v 0.390753 2.000560 18.893276
v 0.617848 2.000560 18.893276
v 0.844943 2.000560 18.893276
v 1.072038 2.000560 18.893276
v 1.299133 2.000560 18.893276
v 1.526228 2.000560 18.893276
v 1.753324 2.000560 18.893276
v 2.350300 2.000560 18.893276
v 2.350300 0.890707 18.893276
v 1.753324 0.891499 18.893276
v 1.526228 1.200952 18.893276
v 1.299133 1.326701 18.893276
v 1.072038 1.368585 18.893276
v 0.844943 1.326701 18.893276
v 0.617848 1.200952 18.893276
v 0.390753 0.891499 18.893276
v -0.010128 0.890707 18.893276
v -3.624938 0.876553 18.893276
v -4.119867 0.878907 18.893276
v -4.346862 1.232879 18.893276
v -4.821968 1.368585 18.893276
v -5.297073 1.232879 18.893276
v -5.524069 0.878907 18.893276
v -6.722393 0.876553 18.893276
v -5.524071 1.412687 18.893276
v -5.297073 1.412687 18.893276
v -6.366063 1.412687 16.683574
v -6.366063 0.878337 16.315292
v -6.366063 0.878337 16.683574
v -6.366063 0.878337 18.893276
v -6.366063 0.878337 19.261562
v -6.366063 1.412687 18.893276
v -3.624938 2.000558 16.683574
v -5.297073 2.000558 16.683574
v -4.821968 2.000558 16.683574
v -4.821968 2.000558 16.315292
v -5.297073 2.000558 16.315292
v -5.524071 2.000558 16.683574
v -5.524071 2.000558 16.315292
v -4.346862 2.000558 16.683574
v -4.346862 2.000558 16.315292
v -6.722393 2.000558 16.683574
v -6.366063 2.000558 16.683574
v -6.366063 2.000558 16.315292
v -6.722393 2.000558 16.315292
v -6.722393 2.000558 18.893276
v -6.366063 2.000558 18.893276
v -4.119865 2.000558 16.683574
v -4.119865 2.000558 16.315292
v -4.346862 2.000558 18.893276
v -4.346862 2.000558 19.261562
v -4.821968 2.000558 18.893276
v -4.821968 2.000558 19.261562
v -4.119865 2.000558 19.261562
v -4.119865 2.000558 18.893276
v -3.624938 2.000558 18.893276
v -6.366063 2.000558 19.261562
v -6.722393 2.000558 19.261562
v -5.524071 2.000558 18.893276
v -5.524071 2.000558 19.261562
v -5.297073 2.000558 18.893276
v -5.297073 2.000558 19.261562
v -0.632463 3.622713 19.050545
v -0.632463 3.622713 18.735012
v -3.644525 3.622712 18.735012
v -3.644525 3.622712 19.050545
v -0.632463 3.622713 16.841835
v -3.644525 3.622712 16.841835
v -0.632463 3.622713 16.526304
v -3.644525 3.622712 16.526304
vt 0.515284 0.740234
vt 0.515284 0.622200
vt 0.546969 0.622200
vt 0.546969 0.740234
vt 0.313458 0.832902
vt 0.351173 0.832902
vt 0.367380 0.982525
vt 0.335068 0.982525
vt 0.706836 0.637574
vt 0.847991 0.637574
vt 0.987773 0.436343
vt 0.987773 0.518092
vt 0.707754 0.518091
vt 0.707754 0.435301
vt 0.684560 0.435474
vt 0.684560 0.518091
vt 0.147355 0.766052
vt 0.165583 0.766052
vt 0.165583 0.908718
vt 0.147355 0.908718
vt 0.274950 0.766052
vt 0.274950 0.908718
vt 0.293178 0.766052
vt 0.293178 0.908718
vt 0.896000 0.656117
vt 0.877149 0.656059
vt 0.877149 0.737775
vt 0.896000 0.737775
vt 0.938713 0.688160
vt 0.928035 0.691244
vt 0.928035 0.737775
vt 0.938713 0.737775
vt 0.949392 0.737775
vt 0.949392 0.678902
vt 0.960070 0.737775
vt 0.960070 0.656117
vt 0.988141 0.737775
vt 0.988141 0.656059
vt 0.917356 0.737775
vt 0.917356 0.688160
vt 0.707174 0.737775
vt 0.707174 0.655017
vt 0.683901 0.655190
vt 0.683901 0.737775
vt 0.628547 0.681253
vt 0.628547 0.737775
vt 0.650887 0.737775
vt 0.650887 0.691244
vt 0.617873 0.655190
vt 0.617873 0.737775
vt 0.673227 0.737775
vt 0.673227 0.681253
vt 0.561525 0.655017
vt 0.561525 0.737775
vt 0.578281 0.737775
vt 0.578281 0.655148
vt 0.906678 0.678902
vt 0.906678 0.737775
vt 0.706253 0.857211
vt 0.847886 0.857211
vt 0.895942 0.518092
vt 0.877156 0.518091
vt 0.877156 0.436343
vt 0.895942 0.436402
vt 0.629392 0.461547
vt 0.651657 0.471542
vt 0.651657 0.518091
vt 0.629392 0.518091
vt 0.618754 0.435474
vt 0.618754 0.518091
vt 0.673922 0.461547
vt 0.673922 0.518091
vt 0.938512 0.518092
vt 0.927870 0.518092
vt 0.927870 0.471542
vt 0.938512 0.468457
vt 0.917227 0.518092
vt 0.906585 0.518092
vt 0.906585 0.459195
vt 0.917227 0.468457
vt 0.959797 0.518092
vt 0.949155 0.518092
vt 0.949155 0.459195
vt 0.959797 0.436402
vt 0.562597 0.435301
vt 0.579296 0.435432
vt 0.579296 0.518091
vt 0.562597 0.518091
vt 0.577461 0.832902
vt 0.561255 0.982525
vt 0.615176 0.832902
vt 0.593567 0.982525
vt 0.325177 0.622200
vt 0.325177 0.740234
vt 0.293492 0.740234
vt 0.293492 0.622200
vt 0.255125 0.506402
vt 0.255125 0.398349
vt 0.271660 0.398349
vt 0.271660 0.506402
vt 0.155909 0.506402
vt 0.155909 0.398349
vt 0.255125 0.550310
vt 0.271660 0.550310
vt 0.155909 0.550310
vt 0.139373 0.506402
vt 0.139373 0.398349
vt 0.255125 0.564935
vt 0.271660 0.564935
vt 0.155909 0.564935
vt 0.139373 0.550310
vt 0.139373 0.564935
vt 0.531969 0.457913
vt 0.531969 0.334316
vt 0.548505 0.334316
vt 0.548505 0.457913
vt 0.432754 0.334316
vt 0.432754 0.457913
vt 0.531969 0.505298
vt 0.548505 0.505298
vt 0.432754 0.505298
vt 0.416218 0.457913
vt 0.416218 0.334316
vt 0.416218 0.505298
vt 0.018528 0.777558
vt 0.018528 0.885611
vt 0.001992 0.885611
vt 0.001992 0.777558
vt 0.117743 0.885611
vt 0.117743 0.777558
vt 0.018528 0.929519
vt 0.001992 0.929519
vt 0.117743 0.929519
vt 0.134279 0.777558
vt 0.134279 0.885611
vt 0.018528 0.944144
vt 0.001992 0.944144
vt 0.134279 0.929519
vt 0.117743 0.944144
vt 0.134279 0.944144
vt 0.294332 0.398349
vt 0.294332 0.521946
vt 0.277796 0.521946
vt 0.277796 0.398349
vt 0.393547 0.521946
vt 0.393547 0.398349
vt 0.294332 0.569331
vt 0.277796 0.569331
vt 0.393547 0.569331
vt 0.410083 0.398349
vt 0.410083 0.521946
vt 0.410083 0.569331
vt 0.157098 0.001885
vt 0.157098 0.394357
vt 0.140563 0.394357
vt 0.140563 0.001885
vt 0.256314 0.001885
vt 0.256314 0.394357
vt 0.272850 0.001885
vt 0.272850 0.394357
vt 0.867341 0.207153
vt 0.768125 0.207153
vt 0.768125 0.001885
vt 0.867341 0.001885
vt 0.018528 0.001885
vt 0.117743 0.001885
vt 0.117743 0.207153
vt 0.018528 0.207153
vt 0.110637 0.773566
vt 0.025634 0.773566
vt 0.134279 0.207153
vt 0.124804 0.773566
vt 0.001992 0.207154
vt 0.011466 0.773566
vt 0.670392 0.403291
vt 0.670392 0.374101
vt 0.686928 0.374101
vt 0.686928 0.403291
vt 0.571177 0.374101
vt 0.571177 0.403291
vt 0.670392 0.357565
vt 0.686928 0.357565
vt 0.571177 0.357565
vt 0.554641 0.403291
vt 0.554641 0.374101
vt 0.670392 0.341029
vt 0.686928 0.341029
vt 0.571177 0.341029
vt 0.554641 0.357565
vt 0.670392 0.324493
vt 0.686928 0.324493
vt 0.571177 0.324493
vt 0.554641 0.341029
vt 0.670392 0.307957
vt 0.686928 0.307957
vt 0.571177 0.307957
vt 0.554641 0.324493
vt 0.670392 0.291421
vt 0.686928 0.291421
vt 0.571177 0.291421
vt 0.554641 0.307957
vt 0.670392 0.274885
vt 0.686928 0.274885
vt 0.571177 0.274885
vt 0.554641 0.291421
vt 0.670392 0.231417
vt 0.686928 0.231417
vt 0.571177 0.231417
vt 0.554641 0.274885
vt 0.554641 0.231417
vt 0.297423 0.031075
vt 0.297423 0.294286
vt 0.280887 0.294286
vt 0.280887 0.031075
vt 0.396638 0.031075
vt 0.396638 0.294286
vt 0.297423 0.330324
vt 0.280887 0.330324
vt 0.280887 0.001885
vt 0.297423 0.001885
vt 0.396638 0.001885
vt 0.413174 0.031075
vt 0.413174 0.294286
vt 0.396638 0.330324
vt 0.413174 0.001885
vt 0.413174 0.330324
vt 0.536963 0.037923
vt 0.536963 0.001885
vt 0.553499 0.001885
vt 0.553499 0.037923
vt 0.536963 0.054451
vt 0.553499 0.054451
vt 0.536963 0.089046
vt 0.553499 0.089046
vt 0.536963 0.123641
vt 0.553499 0.123641
vt 0.536963 0.140170
vt 0.553499 0.140170
vt 0.536963 0.201479
vt 0.553499 0.201479
vt 0.536963 0.227425
vt 0.553499 0.227425
vt 0.437748 0.227425
vt 0.437748 0.201479
vt 0.421212 0.227425
vt 0.421212 0.201479
vt 0.421212 0.140170
vt 0.437748 0.140170
vt 0.421212 0.123641
vt 0.437748 0.123641
vt 0.421212 0.089046
vt 0.437748 0.089046
vt 0.421212 0.054451
vt 0.437748 0.054451
vt 0.421212 0.037923
vt 0.437748 0.037923
vt 0.421212 0.001885
vt 0.437748 0.001885
vt 0.166509 0.585462
vt 0.140563 0.585462
vt 0.140563 0.568926
vt 0.166509 0.568926
vt 0.140563 0.684677
vt 0.166509 0.684677
vt 0.227818 0.585462
vt 0.227818 0.568926
vt 0.227818 0.684677
vt 0.166509 0.701213
vt 0.140563 0.701213
vt 0.227818 0.701213
vt 0.277581 0.589858
vt 0.234112 0.589858
vt 0.234112 0.573323
vt 0.277581 0.573323
vt 0.277581 0.689074
vt 0.234112 0.689074
vt 0.277581 0.705610
vt 0.234112 0.705610
vt 0.792278 0.263712
vt 0.792278 0.298307
vt 0.693063 0.298307
vt 0.693063 0.263712
vt 0.792278 0.332901
vt 0.693063 0.332901
vt 0.792278 0.247183
vt 0.693063 0.247183
vt 0.792278 0.349430
vt 0.693063 0.349430
vt 0.792278 0.211145
vt 0.693063 0.211145
vt 0.792278 0.410740
vt 0.693063 0.410740
vt 0.639374 0.001885
vt 0.673969 0.001885
vt 0.673969 0.207154
vt 0.639374 0.207154
vt 0.708564 0.001885
vt 0.708564 0.207154
vt 0.622846 0.001885
vt 0.622846 0.207154
vt 0.725093 0.001885
vt 0.725093 0.207154
vt 0.561536 0.207154
vt 0.561536 0.001885
vt 0.761131 0.001885
vt 0.761131 0.207154
vt 0.945441 0.416414
vt 0.910847 0.416414
vt 0.910847 0.211145
vt 0.945441 0.211145
vt 0.876252 0.416414
vt 0.876252 0.211145
vt 0.961970 0.416414
vt 0.961970 0.211145
vt 0.859723 0.416414
vt 0.859723 0.211145
vt 0.998008 0.211145
vt 0.998008 0.416414
vt 0.798414 0.416414
vt 0.798414 0.211145
vn 0.000000 0.000000 1.000000
vn 0.000000 0.000000 1.000000
vn 0.000000 0.000000 1.000000
vn 0.000000 0.000000 1.000000
vn -0.000002 1.000000 0.000000
vn -0.000001 1.000000 0.000000
vn -0.000001 1.000000 0.000000
vn -0.000002 1.000000 0.000000
vn 0.691852 -0.722039 0.000000
vn 0.442933 -0.896555 0.000000
vn 0.442933 -0.896555 0.000000
vn 0.691852 -0.722039 0.000000
vn 0.003722 -0.999993 0.000000
vn 0.002871 -0.999996 0.000000
vn 0.002871 -0.999996 0.000000
vn 0.003722 -0.999993 0.000000
vn 0.000000 0.000000 -1.000000
vn 0.000000 0.000000 -1.000000
vn 0.000000 0.000000 -1.000000
vn 0.000000 0.000000 -1.000000
vn 1.000000 0.000000 0.000000
vn 1.000000 0.000000 0.000000
vn 1.000000 0.000000 0.000000
vn 1.000000 0.000000 0.000000
vn -0.000001 1.000000 0.000001
vn -0.000001 1.000000 0.000001
vn -0.000001 1.000000 0.000001
vn -0.000001 1.000000 0.000001
vn -0.442602 -0.896718 0.000000
vn -0.442602 -0.896718 0.000000
vn 0.000000 -1.000000 0.000000
vn 0.572056 -0.820215 0.000000
vn 0.572056 -0.820215 0.000000
vn 0.000000 -1.000000 0.000000
vn 0.000000 1.000000 0.000000
vn 0.000000 1.000000 0.000000
vn 0.000000 1.000000 0.000000
vn 0.000000 1.000000 0.000000
vn 0.000000 0.000000 1.000000
vn 0.000000 0.000000 1.000000
vn 0.000000 0.000000 1.000000
vn 0.000000 0.000000 1.000000
vn 0.000000 0.000000 1.000000
vn 0.000000 0.000000 1.000000
vn 0.314799 -0.949158 0.000000
vn 0.314799 -0.949158 0.000000
vn 0.000000 1.000000 0.000000
vn 0.000000 1.000000 0.000000
vn 0.000000 0.000000 1.000000
vn 0.000000 0.000000 1.000000
vn -0.572055 -0.820215 0.000000
vn -0.572055 -0.820215 0.000000
vn 0.000000 1.000000 0.000000
vn 0.000000 1.000000 0.000000
vn 0.000000 0.000000 1.000000
vn 0.000000 0.000000 1.000000
vn 0.000000 0.000000 1.000000
vn 0.000000 0.000000 1.000000
vn 0.000000 1.000000 0.000000
vn 0.000000 1.000000 0.000000
vn 0.000000 1.000000 0.000000
vn 0.000000 1.000000 0.000000
vn 0.000000 0.000000 -1.000000
vn 0.000000 0.000000 -1.000000
vn 0.000000 0.000000 -1.000000
vn 0.000000 0.000000 -1.000000
vn -0.000000 0.000000 -1.000000
vn -0.000000 0.000000 -1.000000
vn -0.346251 -0.938142 0.000000
vn -0.000000 -1.000000 0.000000
vn -0.000000 -1.000000 0.000000
vn -0.346251 -0.938142 0.000000
vn 0.000000 0.000000 1.000000
vn 0.000000 0.000000 1.000000
vn 0.000000 0.000000 1.000000
vn 0.000000 0.000000 1.000000
vn 0.000000 1.000000 0.000000
vn 0.000000 1.000000 0.000000
vn 0.000000 1.000000 0.000000
vn 0.000000 1.000000 0.000000
vn 0.346251 -0.938142 0.000000
vn 0.346251 -0.938142 0.000000
vn 0.000000 0.000000 1.000000
vn 0.000000 0.000000 1.000000
vn 0.000000 0.000000 1.000000
vn 0.000000 0.000000 1.000000
vn 0.000000 1.000000 0.000000
vn 0.000000 1.000000 0.000000
vn 0.000000 1.000000 0.000000
vn 0.000000 1.000000 0.000000
vn -0.000000 0.000000 -1.000000
vn -0.000000 0.000000 -1.000000
vn 0.000000 0.000000 1.000000
vn 0.000000 0.000000 1.000000
vn 0.000000 0.000000 1.000000
vn 0.000000 0.000000 1.000000
vn 0.001965 -0.999998 0.000000
vn 0.005008 -0.999987 0.000000
vn 0.005008 -0.999987 0.000000
vn 0.001965 -0.999998 0.000000
vn 0.000000 1.000000 0.000000
vn 0.000000 1.000000 0.000000
vn 0.000000 1.000000 0.000000
vn 0.000000 1.000000 0.000000
vn 0.000000 0.000000 1.000000
vn 0.000000 0.000000 1.000000
vn 0.000000 0.000000 1.000000
vn 0.000000 0.000000 1.000000
vn 0.000000 0.000000 1.000000
vn 0.000000 0.000000 1.000000
vn 0.000000 1.000000 0.000000
vn 0.000000 1.000000 0.000000
vn 0.000000 0.000000 -1.000000
vn 0.000000 0.000000 -1.000000
vn -0.001327 -0.999999 0.000000
vn -0.318556 -0.947904 0.000000
vn -0.001327 -0.999999 0.000000
vn -0.001327 -0.999999 0.000000
vn -0.000000 0.000000 -1.000000
vn -0.000000 0.000000 -1.000000
vn -0.806202 -0.591640 0.000000
vn -0.691852 -0.722039 0.000000
vn -0.691852 -0.722039 0.000000
vn -0.806202 -0.591640 0.000000
vn 0.000000 1.000000 0.000000
vn 0.000001 1.000000 0.000000
vn 0.000001 1.000000 0.000000
vn 0.000000 1.000000 0.000000
vn -0.000001 1.000000 0.000000
vn -0.000001 1.000000 0.000000
vn 0.000000 1.000000 0.000000
vn 0.000000 1.000000 0.000000
vn -0.000001 1.000000 0.000000
vn -0.000002 1.000000 0.000000
vn 0.000000 1.000000 0.000000
vn 0.000000 1.000000 0.000000
vn 0.000000 1.000000 0.000000
vn 0.000000 1.000000 0.000000
vn 0.000000 1.000000 0.000000
vn 0.000000 1.000000 0.000000
vn 0.000000 1.000000 0.000000
vn 1.000000 0.000000 0.000000
vn 1.000000 0.000000 0.000000
vn -0.001327 -0.999999 0.000000
vn -0.318555 -0.947904 0.000000
vn -0.691852 -0.722039 0.000000
vn -0.691852 -0.722039 0.000000
vn -0.346251 -0.938142 0.000000
vn -0.346251 -0.938142 0.000000
vn 0.000000 -1.000000 0.000000
vn 0.000000 -1.000000 0.000000
vn 0.346251 -0.938142 0.000000
vn 0.346251 -0.938142 0.000000
vn 0.691852 -0.722039 0.000000
vn 0.691852 -0.722039 0.000000
vn 0.407873 -0.913039 0.000000
vn 0.003722 -0.999993 0.000000
vn -0.442602 -0.896718 0.000000
vn -0.442602 -0.896718 0.000000
vn 0.002871 -0.999996 0.000000
vn -0.572055 -0.820215 0.000000
vn -0.572055 -0.820215 0.000000
vn -0.000000 -1.000000 0.000000
vn -0.000000 -1.000000 0.000000
vn 0.572055 -0.820215 0.000000
vn 0.572055 -0.820215 0.000000
vn 0.314799 -0.949158 0.000000
vn 0.005008 -0.999987 0.000000
vn 0.001965 -0.999998 0.000000
vn 0.000000 1.000000 0.000000
vn 0.000000 1.000000 0.000000
vn 0.000000 1.000000 0.000000
vn 0.000000 1.000000 0.000000
vn 0.000000 1.000000 0.000000
vn 0.000000 1.000000 0.000000
vn 0.000000 1.000000 0.000000
vn 0.000000 1.000000 0.000000
vn 0.000000 1.000000 0.000000
vn 0.000000 1.000000 0.000000
vn 0.000000 1.000000 0.000000
vn 0.000000 1.000000 0.000000
vn 0.000000 1.000000 0.000000
vn 0.000000 1.000000 0.000000
vn 0.000000 1.000000 0.000000
vn 0.000000 1.000000 0.000000
vn -0.000002 1.000000 0.000000
vn -0.000001 1.000000 0.000000
vn 0.000000 1.000000 0.000000
vn 0.000000 1.000000 0.000000
vn 0.000000 1.000000 0.000000
vn 0.000000 1.000000 0.000000
vn 0.000000 1.000000 0.000000
vn 0.000000 1.000000 0.000000
vn 0.000000 1.000000 0.000000
vn 1.000000 0.000000 0.000000
vn 1.000000 0.000000 0.000000
vn -0.001327 -0.999999 0.000000
vn -0.001327 -0.999999 0.000000
vn -0.806202 -0.591640 0.000000
vn -0.691852 -0.722039 0.000000
vn -0.691852 -0.722039 0.000000
vn -0.806202 -0.591640 0.000000
vn -0.346251 -0.938142 0.000000
vn -0.346251 -0.938142 0.000000
vn 0.000000 -1.000000 0.000000
vn 0.000000 -1.000000 0.000000
vn 0.346251 -0.938142 0.000000
vn 0.691852 -0.722039 0.000000
vn 0.691852 -0.722039 0.000000
vn 0.346251 -0.938142 0.000000
vn 0.806202 -0.591640 0.000000
vn 0.806202 -0.591640 0.000000
vn 0.001976 -0.999998 0.000000
vn 0.003722 -0.999993 0.000000
vn 0.002871 -0.999996 0.000000
vn -0.442602 -0.896718 0.000000
vn -0.572055 -0.820215 0.000000
vn -0.572055 -0.820215 0.000000
vn 0.000000 -1.000000 0.000000
vn 0.000000 -1.000000 0.000000
vn 0.572055 -0.820215 0.000000
vn 0.572055 -0.820215 0.000000
vn 0.314799 -0.949158 0.000000
vn 0.314799 -0.949158 0.000000
vn 0.001965 -0.999998 0.000000
vn 0.005008 -0.999987 0.000000
vn 0.000000 1.000000 0.000000
vn 0.000000 1.000000 0.000000
vn 0.000000 1.000000 0.000000
vn 0.000000 1.000000 0.000000
vn 0.000000 1.000000 0.000000
vn 0.000000 1.000000 0.000000
vn 0.000000 0.000000 -1.000000
vn 0.000000 0.000000 -1.000000
vn -0.000000 0.000000 -1.000000
vn -0.000000 0.000000 -1.000000
vn 0.000000 0.000000 1.000000
vn 0.000000 0.000000 1.000000
vn 0.000000 0.000000 1.000000
vn 0.000000 0.000000 1.000000
vn 0.000000 0.000000 -1.000000
vn 0.000000 0.000000 -1.000000
vn -0.000000 0.000000 -1.000000
vn 0.000000 0.000000 -1.000000
vn 0.000000 0.000000 1.000000
vn 0.000000 0.000000 1.000000
vn 0.000000 0.000000 -1.000000
vn 0.000000 0.000000 -1.000000
vn 0.000000 0.000000 1.000000
vn 0.000000 0.000000 1.000000
vn -0.000000 0.000000 -1.000000
vn -0.000000 0.000000 -1.000000
vn -0.000000 0.000000 -1.000000
vn -0.000000 0.000000 -1.000000
vn -0.000000 0.000000 -1.000000
vn -0.000000 0.000000 -1.000000
vn -1.000000 0.000000 0.000000
vn -1.000000 0.000000 0.000000
vn -1.000000 0.000000 0.000000
vn -1.000000 0.000000 0.000000
vn 1.000000 0.000000 0.000000
vn 1.000000 0.000000 0.000000
vn 1.000000 0.000000 0.000000
vn 1.000000 0.000000 0.000000
vn 0.000000 0.000000 1.000000
vn 0.000000 0.000000 1.000000
vn 0.000000 0.000000 1.000000
vn 0.000000 0.000000 1.000000
vn -1.000000 0.000000 0.000000
vn -1.000000 0.000000 0.000000
vn 0.000000 0.000000 -1.000000
vn 0.000000 0.000000 -1.000000
vn 0.000000 0.000000 -1.000000
vn 0.000000 0.000000 -1.000000
vn 0.000000 0.000000 -1.000000
vn 0.000000 0.000000 -1.000000
vn 0.000000 0.000000 -1.000000
vn 0.000000 0.000000 -1.000000
vn -1.000000 0.000000 0.000000
vn -1.000000 0.000000 0.000000
vn 0.000000 0.000000 -1.000000
vn 0.000000 0.000000 -1.000000
vn 0.000000 0.000000 -1.000000
vn 0.000000 0.000000 -1.000000
vn 0.000000 0.000000 -1.000000
vn 0.000000 0.000000 -1.000000
vn 0.000000 0.000000 1.000000
vn 0.000000 0.000000 1.000000
vn -1.000000 0.000000 0.000000
vn -1.000000 0.000000 0.000000
vn -1.000000 0.000000 0.000000
vn -1.000000 0.000000 0.000000
vn 0.000000 0.000000 -1.000000
vn 0.000000 0.000000 -1.000000
vn 0.000000 0.000000 -1.000000
vn 0.000000 0.000000 -1.000000
vn 0.000000 0.000000 1.000000
vn 0.000000 0.000000 1.000000
vn 0.000000 0.000000 1.000000
vn 0.000000 0.000000 1.000000
vn 0.000000 0.000000 -1.000000
vn 0.000000 0.000000 -1.000000
vn -0.000000 1.000000 0.000000
vn -0.000000 1.000000 0.000000
vn -0.000000 1.000000 0.000000
vn -0.000000 1.000000 0.000000
vn -0.000000 1.000000 0.000000
vn -0.000000 1.000000 0.000000
vn -0.000000 1.000000 0.000000
vn -0.000000 1.000000 0.000000
vn 0.933648 0.358192 0.000000
vn 0.933648 0.358192 0.000000
vn 0.933648 0.358192 0.000000
vn 0.933648 0.358192 0.000000
vn -0.999927 -0.012074 0.000000
vn -0.999927 -0.012074 0.000000
vn -0.999927 -0.012074 0.000000
vn -0.999927 -0.012074 0.000000
vn -0.000000 0.128998 0.991645
vn -0.000000 0.128998 0.991645
vn -0.000000 0.128998 0.991645
vn -0.000000 0.128998 0.991645
vn 0.933648 0.358192 0.000000
vn 0.933648 0.358192 0.000000
vn 0.933648 0.358192 0.000000
vn 0.933648 0.358192 0.000000
vn -0.999927 -0.012074 0.000000
vn -0.999927 -0.012074 0.000000
vn -0.999927 -0.012074 0.000000
vn -0.999927 -0.012074 0.000000
vn 0.933648 0.358191 0.000000
vn 0.933648 0.358191 0.000000
vn 0.933648 0.358191 0.000000
vn 0.933648 0.358191 0.000000
vn -0.000000 0.128994 -0.991645
vn -0.000000 0.128994 -0.991645
vn -0.000000 0.128994 -0.991645
vn -0.000000 0.128994 -0.991645
vn -0.999927 -0.012074 -0.000000
vn -0.999927 -0.012074 -0.000000
vn -0.999927 -0.012074 -0.000000
vn -0.999927 -0.012074 -0.000000
s 1
g pCube14 group2 group1
usemtl lambert21SG
f 33/61/1 1/62/2 10/63/3 36/64/4
s 2
f 57/175/5 58/176/6 34/177/7 3/178/8
s 3
f 72/97/9 73/98/10 35/99/11 27/100/12
f 74/211/13 75/212/14 12/213/15 7/214/16
s 5
f 35/25/17 7/26/18 3/27/19 34/28/20
s 6
f 65/1/21 66/2/22 8/3/23 4/4/24
s 7
f 136/227/25 121/228/26 5/229/27 137/230/28
s 3
f 75/212/14 76/217/29 52/218/30 12/213/15
f 78/119/31 79/113/32 18/116/33 16/120/34
s 7
f 122/235/35 123/233/36 124/234/37 125/236/38
s 10
f 17/65/39 15/66/40 141/67/41 150/68/42
f 49/69/43 17/65/39 150/68/42 148/70/44
s 3
f 79/113/32 80/114/45 50/115/46 18/116/33
s 7
f 126/237/47 122/235/35 125/236/38 127/238/48
s 10
f 15/66/40 19/71/49 139/72/50 141/67/41
s 3
f 77/142/51 78/147/31 16/148/34 20/143/52
s 7
f 123/233/36 128/231/53 129/232/54 124/234/37
s 1
f 45/73/55 21/74/56 24/75/57 48/76/58
s 2
f 61/190/59 62/194/60 46/195/61 22/191/62
s 5
f 47/29/63 23/30/64 22/31/65 46/32/66 30/33/67 31/34/68
s 3
f 69/131/69 70/136/70 23/137/71 47/132/72
s 1
f 41/77/73 25/78/74 28/79/75 44/80/76
s 2
f 59/181/77 60/186/78 42/187/79 26/182/80
s 3
f 71/103/81 72/97/9 27/100/12 43/104/82
s 1
f 37/81/83 29/82/84 32/83/85 40/84/86
s 2
f 63/198/87 64/202/88 38/203/89 30/199/90
s 5
f 30/33/67 38/35/91 39/36/92 31/34/68
s 10
f 14/85/93 119/86/94 145/87/95 146/88/96
s 3
f 117/259/97 81/260/98 13/261/99 116/262/100
s 7
f 130/241/101 131/239/102 132/240/103 133/242/104
s 10
f 142/16/105 51/15/106 11/14/107 6/13/108
s 1
f 25/78/74 33/61/1 36/64/4 28/79/75
s 2
f 58/176/6 59/181/77 26/182/80 34/177/7
s 1
f 2/12/109 37/81/83 40/84/86 9/11/110
s 2
f 64/202/88 65/206/111 4/207/112 38/203/89
s 5
f 38/35/91 4/37/113 8/38/114 39/36/92
s 3
f 66/271/115 67/272/116 39/273/117 8/274/118
s 1
f 21/74/56 41/77/73 44/80/76 24/75/57
s 2
f 60/186/78 61/190/59 22/191/62 42/187/79
s 5
f 42/39/119 22/31/65 23/30/64 43/40/120
s 3
f 70/108/70 71/103/81 43/104/82 23/109/71
s 1
f 29/82/84 45/73/55 48/76/58 32/83/85
s 2
f 62/194/60 63/198/87 30/199/90 46/195/61
s 3
f 67/125/121 68/126/122 31/127/123 39/128/124
f 80/265/45 117/259/97 116/262/100 50/266/46
s 7
f 131/239/102 126/237/47 127/238/48 132/240/103
s 10
f 19/71/49 51/15/106 142/16/105 139/72/50
s 3
f 76/141/29 77/142/51 20/143/52 52/144/30
s 7
f 128/231/53 136/227/25 137/230/28 129/232/54
s 20
f 54/279/125 53/280/126 84/281/127 85/282/128
f 55/285/129 54/279/125 85/282/128 86/286/130
f 56/289/131 55/285/129 86/286/130 87/290/132
s 2
f 89/179/133 58/176/6 57/175/5 88/180/134
f 90/183/135 59/181/77 58/176/6 89/179/133
f 91/188/136 60/186/78 59/181/77 90/183/135
f 92/192/137 61/190/59 60/186/78 91/188/136
f 93/196/138 62/194/60 61/190/59 92/192/137
f 94/200/139 63/198/87 62/194/60 93/196/138
f 95/204/140 64/202/88 63/198/87 94/200/139
f 65/206/111 64/202/88 95/204/140 96/208/141
s 6
f 97/93/142 66/2/22 65/1/21 96/94/143
s 3
f 67/272/116 66/271/115 97/275/144 98/276/145
f 99/129/146 68/126/147 67/125/116 98/130/145
f 69/131/148 68/126/147 99/129/146 100/133/149
f 101/139/150 70/136/151 69/131/148 100/133/149
f 71/103/152 70/108/151 101/110/150 102/105/153
f 103/101/154 72/97/155 71/103/152 102/105/153
f 73/98/10 72/97/155 103/101/154 104/102/156
f 105/215/157 74/211/13 73/220/10 104/221/156
f 107/224/158 76/217/159 75/212/14 106/216/160
f 108/145/161 77/142/162 76/141/159 107/146/158
f 78/147/163 77/142/162 108/145/161 109/149/164
f 79/113/165 78/119/163 109/121/164 110/118/166
f 111/117/167 80/114/45 79/113/165 110/118/166
f 112/263/168 81/260/98 117/259/97 118/264/169
s 7
f 131/239/102 130/241/101 134/243/170 135/244/171
s 20
f 113/288/172 82/287/173 115/291/174 120/292/175
f 114/284/176 83/283/177 82/287/173 113/288/172
f 84/281/127 53/280/126 83/283/177 114/284/176
s 7
f 141/251/178 139/253/179 138/254/180 140/252/181
f 139/253/179 142/255/182 143/256/183 138/254/180
f 142/255/182 6/257/184 144/258/185 143/256/183
s 2
f 1/184/186 33/185/187 89/179/133 88/180/134
f 33/185/187 25/189/188 90/183/135 89/179/133
f 25/189/188 41/193/189 91/188/136 90/183/135
f 41/193/189 21/197/190 92/192/137 91/188/136
f 21/197/190 45/201/191 93/196/138 92/192/137
f 45/201/191 29/205/192 94/200/139 93/196/138
f 29/205/192 37/209/193 95/204/140 94/200/139
f 37/209/193 2/210/194 96/208/141 95/204/140
s 6
f 2/95/195 9/96/196 97/93/142 96/94/143
s 3
f 9/277/197 40/278/198 98/276/145 97/275/144
s 24
f 40/134/199 32/135/200 99/129/201 98/130/202
f 32/135/200 48/138/203 100/133/204 99/129/201
f 48/138/203 24/140/205 101/139/206 100/133/204
f 44/111/207 28/106/208 103/101/209 102/105/210
f 28/106/208 36/107/211 104/102/212 103/101/209
s 3
f 36/225/213 10/222/214 105/215/157 104/221/156
f 10/222/214 11/223/215 106/216/160 105/215/157
f 11/223/215 51/226/216 107/224/158 106/216/160
f 51/150/216 19/151/217 108/145/218 107/146/158
f 19/151/217 15/152/219 109/149/220 108/145/218
f 15/124/219 17/122/221 110/118/222 109/121/220
f 17/122/221 49/123/223 111/117/224 110/118/222
f 49/270/223 119/268/225 118/264/169 111/267/224
f 119/268/225 14/269/226 112/263/168 118/264/169
s 7
f 146/245/227 145/246/228 135/244/171 134/243/170
f 145/246/228 148/247/229 147/248/230 135/244/171
f 148/247/229 150/249/231 149/250/232 147/248/230
f 150/249/231 141/251/178 140/252/181 149/250/232
s 10
f 145/87/95 119/86/94 49/69/43 148/70/44
s 26
f 5/41/233 12/42/234 52/43/235 137/44/236
s 27
f 83/293/237 53/294/238 123/295/239 122/296/240
s 26
f 18/45/241 125/46/242 124/47/243 16/48/244
s 27
f 82/299/245 83/293/237 122/296/240 126/300/246
s 26
f 50/49/247 127/50/248 125/46/242 18/45/241
s 27
f 53/294/238 54/297/249 128/298/250 123/295/239
s 26
f 16/48/244 124/47/243 129/51/251 20/52/252
f 13/53/253 133/54/254 132/55/255 116/56/256
s 29
f 81/153/257 130/154/258 133/155/259 13/156/260
s off
f 131/161/261 135/162/262 120/163/263 115/164/264
s 27
f 136/302/265 55/301/266 56/305/267 121/306/268
s 26
f 127/50/248 50/49/247 116/56/256 132/55/255
s 27
f 54/297/249 55/301/266 136/302/265 128/298/250
s 26
f 20/52/252 129/51/251 137/44/236 52/43/235
s 29
f 130/154/258 81/153/257 112/157/269 134/158/270
s 30
f 85/307/271 84/308/272 140/309/273 138/310/274
f 86/313/275 85/307/271 138/310/274 143/314/276
f 143/314/276 144/317/277 87/318/278 86/313/275
s 29
f 14/159/279 146/160/280 134/158/270 112/157/269
s 30
f 147/316/281 113/315/282 120/319/283 135/320/284
f 114/311/285 113/315/282 147/316/281 149/312/286
f 84/308/272 114/311/285 149/312/286 140/309/273
s 27
f 131/303/287 115/304/288 82/299/245 126/300/246
s off
f 56/165/289 87/166/290 144/167/291 121/168/292
f 3/27/293 7/26/294 12/42/295 5/41/296
s 3
f 74/211/13 105/215/157 106/216/160 75/212/14
s off
f 10/63/297 1/62/298 6/13/299 11/14/300
s 5
f 27/57/301 26/58/302 42/39/119 43/40/120
f 35/25/17 34/28/20 26/58/302 27/57/301
s 32
f 151/17/303 152/18/304 153/19/305 154/20/306
f 153/19/305 152/18/304 155/21/307 156/22/308
f 155/21/307 157/23/309 158/24/310 156/22/308
s 3
f 35/219/11 73/220/10 74/211/13 7/214/16
f 118/264/169 117/259/97 80/265/45 111/267/167
s off
f 1/5/311 88/6/312 152/7/313 151/8/314
f 144/167/315 6/171/316 154/172/317 153/169/318
f 6/13/319 1/62/320 151/10/321 154/9/322
f 88/6/323 57/89/324 155/90/325 152/7/326
f 121/168/327 144/167/328 153/169/329 156/170/330
f 57/89/331 3/91/332 157/92/333 155/90/334
f 3/27/335 5/41/336 158/59/337 157/60/338
f 5/173/339 121/168/340 156/170/341 158/174/342
s 24
f 101/110/206 24/112/205 44/111/207 102/105/210
s 3
f 31/127/123 68/126/122 69/131/69 47/132/72
g default
v 1.641055 1.029500 18.989457
v 1.399440 1.271115 18.989457
v 1.069389 1.359552 18.989457
v 0.739337 1.271115 18.989457
v 0.497722 1.029500 18.989457
v 0.409285 0.699449 18.989457
v 0.497722 0.369397 18.989457
v 0.739337 0.127782 18.989457
v 1.069389 0.039345 18.989457
v 1.399440 0.127782 18.989457
v 1.641055 0.369397 18.989457
v 1.729492 0.699449 18.989457
v 1.069389 0.699449 18.989457
v 1.399440 1.271115 19.394850
v 1.641055 1.029500 19.394850
v 1.729492 0.699449 19.394850
v 1.641055 0.369397 19.394850
v 1.399440 0.127782 19.394850
v 1.069389 0.039345 19.394850
v 0.739337 0.127782 19.394850
v 0.497722 0.369397 19.394850
v 0.409285 0.699449 19.394850
v 0.497722 1.029500 19.394850
v 0.739337 1.271115 19.394850
v 1.069389 1.359552 19.394850
v 1.069389 0.699449 19.394850
vt 0.263136 0.840741
vt 0.263136 0.716709
vt 0.347548 0.716709
vt 0.347548 0.840741
vt 0.263136 0.592677
vt 0.347548 0.592677
vt 0.263136 0.931539
vt 0.347548 0.931539
vt 0.263136 0.501879
vt 0.347548 0.501879
vt 0.437736 0.592677
vt 0.437736 0.716709
vt 0.353324 0.716709
vt 0.353324 0.592677
vt 0.437736 0.840741
vt 0.353324 0.840741
vt 0.437736 0.501879
vt 0.353324 0.501879
vt 0.437736 0.931539
vt 0.353324 0.931539
vt 0.257359 0.501880
vt 0.257359 0.625912
vt 0.172947 0.625912
vt 0.172947 0.501880
vt 0.257359 0.749944
vt 0.172947 0.749944
vt 0.082759 0.749944
vt 0.082759 0.625912
vt 0.167170 0.625912
vt 0.167170 0.749944
vt 0.082759 0.501880
vt 0.167170 0.501880
vt 0.035110 0.126024
vt 0.125908 0.035226
vt 0.249940 0.250056
vt 0.249940 0.001992
vt 0.001876 0.250056
vt 0.373972 0.035226
vt 0.035110 0.374089
vt 0.464770 0.126024
vt 0.125908 0.464887
vt 0.498004 0.250056
vt 0.249940 0.498121
vt 0.464770 0.374089
vt 0.373972 0.464887
vt 0.476747 0.625911
vt 0.691577 0.749944
vt 0.443513 0.749944
vt 0.567545 0.535113
vt 0.476747 0.873976
vt 0.691577 0.501879
vt 0.567545 0.964774
vt 0.815609 0.535113
vt 0.691577 0.998008
vt 0.906407 0.625911
vt 0.815609 0.964774
vt 0.939641 0.749944
vt 0.906407 0.873976
vn 0.866025 0.500001 0.000000
vn 0.499998 0.866026 0.000000
vn 0.499998 0.866026 0.000000
vn 0.866025 0.500001 0.000000
vn 0.000000 1.000000 0.000000
vn 0.000000 1.000000 0.000000
vn -0.499998 0.866026 0.000000
vn -0.499998 0.866026 0.000000
vn -0.866025 0.500001 0.000000
vn -0.866025 0.500001 0.000000
vn -1.000000 0.000000 0.000000
vn -1.000000 0.000000 0.000000
vn -0.866025 -0.500001 0.000000
vn -0.866025 -0.500001 0.000000
vn -0.499998 -0.866026 0.000000
vn -0.499998 -0.866026 0.000000
vn 0.000000 -1.000000 0.000000
vn 0.000000 -1.000000 0.000000
vn 0.499998 -0.866026 0.000000
vn 0.499998 -0.866026 0.000000
vn 0.866025 -0.500001 0.000000
vn 0.866025 -0.500001 0.000000
vn 1.000000 0.000000 0.000000
vn 1.000000 0.000000 0.000000
vn 0.000000 0.000000 -1.000000
vn 0.000000 0.000000 -1.000000
vn -0.000002 0.000000 -1.000000
vn 0.000000 0.000000 -1.000000
vn -0.000007 0.000000 -1.000000
vn -0.000007 0.000000 -1.000000
vn 0.000000 0.000000 -1.000000
vn -0.000013 0.000000 -1.000000
vn -0.000000 0.000000 -1.000000
vn 0.000000 0.000000 -1.000000
vn -0.000007 0.000000 -1.000000
vn 0.000007 0.000000 -1.000000
vn 0.000000 0.000000 -1.000000
vn 0.000000 0.000000 1.000000
vn 0.000000 0.000000 1.000000
vn 0.000000 0.000000 1.000000
vn 0.000007 0.000000 1.000000
vn 0.000007 0.000000 1.000000
vn -0.000007 0.000000 1.000000
vn -0.000007 0.000000 1.000000
vn 0.000000 0.000000 1.000000
vn 0.000007 0.000000 1.000000
vn 0.000007 0.000000 1.000000
vn -0.000007 0.000000 1.000000
vn -0.000007 0.000000 1.000000
vn 0.000000 0.000000 1.000000
s 1
g group2 group1 pCylinder3
usemtl lambert23SG
f 159/335/343 160/339/344 172/340/345 173/336/346
f 160/341/344 161/342/347 183/343/348 172/344/345
f 161/342/347 162/345/349 182/346/350 183/343/348
f 162/327/349 163/321/351 181/324/352 182/328/350
f 163/321/351 164/322/353 180/323/354 181/324/352
f 164/322/353 165/325/355 179/326/356 180/323/354
f 165/325/355 166/329/357 178/330/358 179/326/356
f 166/347/357 167/348/359 177/349/360 178/350/358
f 167/348/359 168/351/361 176/352/362 177/349/360
f 168/337/361 169/331/363 175/334/364 176/338/362
f 169/331/363 170/332/365 174/333/366 175/334/364
f 170/332/365 159/335/343 173/336/346 174/333/366
s 2
f 160/353/367 159/354/368 171/355/369
f 161/357/370 160/353/367 171/355/369
f 162/359/371 161/357/370 171/355/369
f 163/361/372 162/359/371 171/355/369
f 164/363/373 163/361/372 171/355/369
f 165/365/374 164/363/373 171/355/369
f 166/364/375 165/365/374 171/355/369
f 167/362/376 166/364/375 171/355/369
f 168/360/377 167/362/376 171/355/369
f 169/358/378 168/360/377 171/355/369
f 170/356/379 169/358/378 171/355/369
f 159/354/368 170/356/379 171/355/369
s 3
f 176/366/380 184/367/381 177/368/382
f 181/376/383 184/367/381 182/378/384
f 174/371/385 184/367/381 175/369/386
f 182/378/384 184/367/381 183/377/387
f 179/372/388 184/367/381 180/374/389
f 175/369/386 184/367/381 176/366/380
f 173/373/390 172/375/391 184/367/381
f 180/374/389 184/367/381 181/376/383
f 177/368/382 184/367/381 178/370/392
f 173/373/390 184/367/381 174/371/385
f 184/367/381 172/375/391 183/377/387
f 178/370/392 184/367/381 179/372/388
g default
v 1.641055 1.029500 16.206584
v 1.399440 1.271115 16.206584
v 1.069389 1.359552 16.206584
v 0.739337 1.271115 16.206584
v 0.497722 1.029500 16.206584
v 0.409285 0.699449 16.206584
v 0.497722 0.369397 16.206584
v 0.739337 0.127782 16.206584
v 1.069389 0.039345 16.206584
v 1.399440 0.127782 16.206584
v 1.641055 0.369397 16.206584
v 1.729492 0.699449 16.206584
v 1.069389 0.699449 16.206584
v 1.399440 1.271115 16.611977
v 1.641055 1.029500 16.611977
v 1.729492 0.699449 16.611977
v 1.641055 0.369397 16.611977
v 1.399440 0.127782 16.611977
v 1.069389 0.039345 16.611977
v 0.739337 0.127782 16.611977
v 0.497722 0.369397 16.611977
v 0.409285 0.699449 16.611977
v 0.497722 1.029500 16.611977
v 0.739337 1.271115 16.611977
v 1.069389 1.359552 16.611977
v 1.069389 0.699449 16.611977
vt 0.263136 0.840741
vt 0.263136 0.716709
vt 0.347548 0.716709
vt 0.347548 0.840741
vt 0.263136 0.592677
vt 0.347548 0.592677
vt 0.263136 0.931539
vt 0.347548 0.931539
vt 0.263136 0.501879
vt 0.347548 0.501879
vt 0.437736 0.592677
vt 0.437736 0.716709
vt 0.353324 0.716709
vt 0.353324 0.592677
vt 0.437736 0.840741
vt 0.353324 0.840741
vt 0.437736 0.501879
vt 0.353324 0.501879
vt 0.437736 0.931539
vt 0.353324 0.931539
vt 0.257359 0.501880
vt 0.257359 0.625912
vt 0.172947 0.625912
vt 0.172947 0.501880
vt 0.257359 0.749944
vt 0.172947 0.749944
vt 0.082759 0.749944
vt 0.082759 0.625912
vt 0.167170 0.625912
vt 0.167170 0.749944
vt 0.082759 0.501880
vt 0.167170 0.501880
vt 0.035110 0.126024
vt 0.125908 0.035226
vt 0.249940 0.250056
vt 0.249940 0.001992
vt 0.001876 0.250056
vt 0.373972 0.035226
vt 0.035110 0.374089
vt 0.464770 0.126024
vt 0.125908 0.464887
vt 0.498004 0.250056
vt 0.249940 0.498121
vt 0.464770 0.374089
vt 0.373972 0.464887
vt 0.476747 0.625911
vt 0.691577 0.749944
vt 0.443513 0.749944
vt 0.567545 0.535113
vt 0.476747 0.873976
vt 0.691577 0.501879
vt 0.567545 0.964774
vt 0.815609 0.535113
vt 0.691577 0.998008
vt 0.906407 0.625911
vt 0.815609 0.964774
vt 0.939641 0.749944
vt 0.906407 0.873976
vn 0.866025 0.500001 0.000000
vn 0.499998 0.866026 0.000000
vn 0.499998 0.866026 0.000000
vn 0.866025 0.500001 0.000000
vn 0.000000 1.000000 0.000000
vn 0.000000 1.000000 0.000000
vn -0.499998 0.866026 0.000000
vn -0.499998 0.866026 0.000000
vn -0.866025 0.500001 0.000000
vn -0.866025 0.500001 0.000000
vn -1.000000 0.000000 0.000000
vn -1.000000 0.000000 0.000000
vn -0.866025 -0.500001 0.000000
vn -0.866025 -0.500001 0.000000
vn -0.499998 -0.866026 0.000000
vn -0.499998 -0.866026 0.000000
vn 0.000000 -1.000000 0.000000
vn 0.000000 -1.000000 0.000000
vn 0.499998 -0.866026 0.000000
vn 0.499998 -0.866026 0.000000
vn 0.866025 -0.500001 0.000000
vn 0.866025 -0.500001 0.000000
vn 1.000000 0.000000 0.000000
vn 1.000000 0.000000 0.000000
vn 0.000000 0.000000 -1.000000
vn 0.000000 0.000000 -1.000000
vn -0.000002 0.000000 -1.000000
vn 0.000000 0.000000 -1.000000
vn -0.000007 0.000000 -1.000000
vn -0.000007 0.000000 -1.000000
vn 0.000000 0.000000 -1.000000
vn -0.000013 0.000000 -1.000000
vn -0.000000 0.000000 -1.000000
vn 0.000000 0.000000 -1.000000
vn -0.000007 0.000000 -1.000000
vn 0.000007 0.000000 -1.000000
vn 0.000000 0.000000 -1.000000
vn 0.000000 0.000000 1.000000
vn 0.000000 0.000000 1.000000
vn 0.000000 0.000000 1.000000
vn 0.000007 0.000000 1.000000
vn 0.000007 0.000000 1.000000
vn -0.000007 0.000000 1.000000
vn -0.000007 0.000000 1.000000
vn 0.000000 0.000000 1.000000
vn 0.000007 0.000000 1.000000
vn 0.000007 0.000000 1.000000
vn -0.000007 0.000000 1.000000
vn -0.000007 0.000000 1.000000
vn 0.000000 0.000000 1.000000
s 1
g group2 group1 pCylinder12
usemtl lambert23SG
f 185/393/393 186/397/394 198/398/395 199/394/396
f 186/399/394 187/400/397 209/401/398 198/402/395
f 187/400/397 188/403/399 208/404/400 209/401/398
f 188/385/399 189/379/401 207/382/402 208/386/400
f 189/379/401 190/380/403 206/381/404 207/382/402
f 190/380/403 191/383/405 205/384/406 206/381/404
f 191/383/405 192/387/407 204/388/408 205/384/406
f 192/405/407 193/406/409 203/407/410 204/408/408
f 193/406/409 194/409/411 202/410/412 203/407/410
f 194/395/411 195/389/413 201/392/414 202/396/412
f 195/389/413 196/390/415 200/391/416 201/392/414
f 196/390/415 185/393/393 199/394/396 200/391/416
s 2
f 186/411/417 185/412/418 197/413/419
f 187/415/420 186/411/417 197/413/419
f 188/417/421 187/415/420 197/413/419
f 189/419/422 188/417/421 197/413/419
f 190/421/423 189/419/422 197/413/419
f 191/423/424 190/421/423 197/413/419
f 192/422/425 191/423/424 197/413/419
f 193/420/426 192/422/425 197/413/419
f 194/418/427 193/420/426 197/413/419
f 195/416/428 194/418/427 197/413/419
f 196/414/429 195/416/428 197/413/419
f 185/412/418 196/414/429 197/413/419
s 3
f 202/424/430 210/425/431 203/426/432
f 207/434/433 210/425/431 208/436/434
f 200/429/435 210/425/431 201/427/436
f 208/436/434 210/425/431 209/435/437
f 205/430/438 210/425/431 206/432/439
f 201/427/436 210/425/431 202/424/430
f 199/431/440 198/433/441 210/425/431
f 206/432/439 210/425/431 207/434/433
f 203/426/432 210/425/431 204/428/442
f 199/431/440 210/425/431 200/429/435
f 210/425/431 198/433/441 209/435/437
f 204/428/442 210/425/431 205/430/438
g default
v -4.252714 1.029500 16.206584
v -4.494329 1.271115 16.206584
v -4.824381 1.359552 16.206584
v -5.154432 1.271115 16.206584
v -5.396047 1.029500 16.206584
v -5.484484 0.699449 16.206584
v -5.396047 0.369397 16.206584
v -5.154432 0.127782 16.206584
v -4.824381 0.039345 16.206584
v -4.494329 0.127782 16.206584
v -4.252714 0.369397 16.206584
v -4.164277 0.699449 16.206584
v -4.824381 0.699449 16.206584
v -4.494329 1.271115 16.611977
v -4.252714 1.029500 16.611977
v -4.164277 0.699449 16.611977
v -4.252714 0.369397 16.611977
v -4.494329 0.127782 16.611977
v -4.824381 0.039345 16.611977
v -5.154432 0.127782 16.611977
v -5.396047 0.369397 16.611977
v -5.484484 0.699449 16.611977
v -5.396047 1.029500 16.611977
v -5.154432 1.271115 16.611977
v -4.824381 1.359552 16.611977
v -4.824381 0.699449 16.611977
vt 0.263136 0.840741
vt 0.263136 0.716709
vt 0.347548 0.716709
vt 0.347548 0.840741
vt 0.263136 0.592677
vt 0.347548 0.592677
vt 0.263136 0.931539
vt 0.347548 0.931539
vt 0.263136 0.501879
vt 0.347548 0.501879
vt 0.437736 0.592677
vt 0.437736 0.716709
vt 0.353324 0.716709
vt 0.353324 0.592677
vt 0.437736 0.840741
vt 0.353324 0.840741
vt 0.437736 0.501879
vt 0.353324 0.501879
vt 0.437736 0.931539
vt 0.353324 0.931539
vt 0.257359 0.501880
vt 0.257359 0.625912
vt 0.172947 0.625912
vt 0.172947 0.501880
vt 0.257359 0.749944
vt 0.172947 0.749944
vt 0.082759 0.749944
vt 0.082759 0.625912
vt 0.167170 0.625912
vt 0.167170 0.749944
vt 0.082759 0.501880
vt 0.167170 0.501880
vt 0.035110 0.126024
vt 0.125908 0.035226
vt 0.249940 0.250056
vt 0.249940 0.001992
vt 0.001876 0.250056
vt 0.373972 0.035226
vt 0.035110 0.374089
vt 0.464770 0.126024
vt 0.125908 0.464887
vt 0.498004 0.250056
vt 0.249940 0.498121
vt 0.464770 0.374089
vt 0.373972 0.464887
vt 0.476747 0.625911
vt 0.691577 0.749944
vt 0.443513 0.749944
vt 0.567545 0.535113
vt 0.476747 0.873976
vt 0.691577 0.501879
vt 0.567545 0.964774
vt 0.815609 0.535113
vt 0.691577 0.998008
vt 0.906407 0.625911
vt 0.815609 0.964774
vt 0.939641 0.749944
vt 0.906407 0.873976
vn 0.866025 0.500001 0.000000
vn 0.499998 0.866026 0.000000
vn 0.499998 0.866026 0.000000
vn 0.866025 0.500001 0.000000
vn 0.000000 1.000000 0.000000
vn 0.000000 1.000000 0.000000
vn -0.499998 0.866026 0.000000
vn -0.499998 0.866026 0.000000
vn -0.866025 0.500001 0.000000
vn -0.866025 0.500001 0.000000
vn -1.000000 0.000000 0.000000
vn -1.000000 0.000000 0.000000
vn -0.866025 -0.500001 0.000000
vn -0.866025 -0.500001 0.000000
vn -0.499998 -0.866026 0.000000
vn -0.499998 -0.866026 0.000000
vn 0.000000 -1.000000 0.000000
vn 0.000000 -1.000000 0.000000
vn 0.499998 -0.866026 0.000000
vn 0.499998 -0.866026 0.000000
vn 0.866025 -0.500001 0.000000
vn 0.866025 -0.500001 0.000000
vn 1.000000 0.000000 0.000000
vn 1.000000 0.000000 0.000000
vn 0.000000 0.000000 -1.000000
vn 0.000000 0.000000 -1.000000
vn -0.000002 0.000000 -1.000000
vn 0.000000 0.000000 -1.000000
vn -0.000007 0.000000 -1.000000
vn -0.000007 0.000000 -1.000000
vn 0.000000 0.000000 -1.000000
vn -0.000013 0.000000 -1.000000
vn -0.000000 0.000000 -1.000000
vn 0.000000 0.000000 -1.000000
vn -0.000007 0.000000 -1.000000
vn 0.000007 0.000000 -1.000000
vn 0.000000 0.000000 -1.000000
vn 0.000000 0.000000 1.000000
vn 0.000000 0.000000 1.000000
vn 0.000000 0.000000 1.000000
vn 0.000007 0.000000 1.000000
vn 0.000007 0.000000 1.000000
vn -0.000007 0.000000 1.000000
vn -0.000007 0.000000 1.000000
vn 0.000000 0.000000 1.000000
vn 0.000007 0.000000 1.000000
vn 0.000007 0.000000 1.000000
vn -0.000007 0.000000 1.000000
vn -0.000007 0.000000 1.000000
vn 0.000000 0.000000 1.000000
s 1
g group2 group1 pCylinder11
usemtl lambert23SG
f 211/451/443 212/455/444 224/456/445 225/452/446
f 212/457/444 213/458/447 235/459/448 224/460/445
f 213/458/447 214/461/449 234/462/450 235/459/448
f 214/443/449 215/437/451 233/440/452 234/444/450
f 215/437/451 216/438/453 232/439/454 233/440/452
f 216/438/453 217/441/455 231/442/456 232/439/454
f 217/441/455 218/445/457 230/446/458 231/442/456
f 218/463/457 219/464/459 229/465/460 230/466/458
f 219/464/459 220/467/461 228/468/462 229/465/460
f 220/453/461 221/447/463 227/450/464 228/454/462
f 221/447/463 222/448/465 226/449/466 227/450/464
f 222/448/465 211/451/443 225/452/446 226/449/466
s 2
f 212/469/467 211/470/468 223/471/469
f 213/473/470 212/469/467 223/471/469
f 214/475/471 213/473/470 223/471/469
f 215/477/472 214/475/471 223/471/469
f 216/479/473 215/477/472 223/471/469
f 217/481/474 216/479/473 223/471/469
f 218/480/475 217/481/474 223/471/469
f 219/478/476 218/480/475 223/471/469
f 220/476/477 219/478/476 223/471/469
f 221/474/478 220/476/477 223/471/469
f 222/472/479 221/474/478 223/471/469
f 211/470/468 222/472/479 223/471/469
s 3
f 228/482/480 236/483/481 229/484/482
f 233/492/483 236/483/481 234/494/484
f 226/487/485 236/483/481 227/485/486
f 234/494/484 236/483/481 235/493/487
f 231/488/488 236/483/481 232/490/489
f 227/485/486 236/483/481 228/482/480
f 225/489/490 224/491/491 236/483/481
f 232/490/489 236/483/481 233/492/483
f 229/484/482 236/483/481 230/486/492
f 225/489/490 236/483/481 226/487/485
f 236/483/481 224/491/491 235/493/487
f 230/486/492 236/483/481 231/488/488
g default
v -4.252714 1.029500 18.989457
v -4.494329 1.271115 18.989457
v -4.824381 1.359552 18.989457
v -5.154432 1.271115 18.989457
v -5.396047 1.029500 18.989457
v -5.484484 0.699449 18.989457
v -5.396047 0.369397 18.989457
v -5.154432 0.127782 18.989457
v -4.824381 0.039345 18.989457
v -4.494329 0.127782 18.989457
v -4.252714 0.369397 18.989457
v -4.164277 0.699449 18.989457
v -4.824381 0.699449 18.989457
v -4.494329 1.271115 19.394850
v -4.252714 1.029500 19.394850
v -4.164277 0.699449 19.394850
v -4.252714 0.369397 19.394850
v -4.494329 0.127782 19.394850
v -4.824381 0.039345 19.394850
v -5.154432 0.127782 19.394850
v -5.396047 0.369397 19.394850
v -5.484484 0.699449 19.394850
v -5.396047 1.029500 19.394850
v -5.154432 1.271115 19.394850
v -4.824381 1.359552 19.394850
v -4.824381 0.699449 19.394850
vt 0.263136 0.840741
vt 0.263136 0.716709
vt 0.347548 0.716709
vt 0.347548 0.840741
vt 0.263136 0.592677
vt 0.347548 0.592677
vt 0.263136 0.931539
vt 0.347548 0.931539
vt 0.263136 0.501879
vt 0.347548 0.501879
vt 0.437736 0.592677
vt 0.437736 0.716709
vt 0.353324 0.716709
vt 0.353324 0.592677
vt 0.437736 0.840741
vt 0.353324 0.840741
vt 0.437736 0.501879
vt 0.353324 0.501879
vt 0.437736 0.931539
vt 0.353324 0.931539
vt 0.257359 0.501880
vt 0.257359 0.625912
vt 0.172947 0.625912
vt 0.172947 0.501880
vt 0.257359 0.749944
vt 0.172947 0.749944
vt 0.082759 0.749944
vt 0.082759 0.625912
vt 0.167170 0.625912
vt 0.167170 0.749944
vt 0.082759 0.501880
vt 0.167170 0.501880
vt 0.035110 0.126024
vt 0.125908 0.035226
vt 0.249940 0.250056
vt 0.249940 0.001992
vt 0.001876 0.250056
vt 0.373972 0.035226
vt 0.035110 0.374089
vt 0.464770 0.126024
vt 0.125908 0.464887
vt 0.498004 0.250056
vt 0.249940 0.498121
vt 0.464770 0.374089
vt 0.373972 0.464887
vt 0.476747 0.625911
vt 0.691577 0.749944
vt 0.443513 0.749944
vt 0.567545 0.535113
vt 0.476747 0.873976
vt 0.691577 0.501879
vt 0.567545 0.964774
vt 0.815609 0.535113
vt 0.691577 0.998008
vt 0.906407 0.625911
vt 0.815609 0.964774
vt 0.939641 0.749944
vt 0.906407 0.873976
vn 0.866025 0.500001 0.000000
vn 0.499998 0.866026 0.000000
vn 0.499998 0.866026 0.000000
vn 0.866025 0.500001 0.000000
vn 0.000000 1.000000 0.000000
vn 0.000000 1.000000 0.000000
vn -0.499998 0.866026 0.000000
vn -0.499998 0.866026 0.000000
vn -0.866025 0.500001 0.000000
vn -0.866025 0.500001 0.000000
vn -1.000000 0.000000 0.000000
vn -1.000000 0.000000 0.000000
vn -0.866025 -0.500001 0.000000
vn -0.866025 -0.500001 0.000000
vn -0.499998 -0.866026 0.000000
vn -0.499998 -0.866026 0.000000
vn 0.000000 -1.000000 0.000000
vn 0.000000 -1.000000 0.000000
vn 0.499998 -0.866026 0.000000
vn 0.499998 -0.866026 0.000000
vn 0.866025 -0.500001 0.000000
vn 0.866025 -0.500001 0.000000
vn 1.000000 0.000000 0.000000
vn 1.000000 0.000000 0.000000
vn 0.000000 0.000000 -1.000000
vn 0.000000 0.000000 -1.000000
vn -0.000002 0.000000 -1.000000
vn 0.000000 0.000000 -1.000000
vn -0.000007 0.000000 -1.000000
vn -0.000007 0.000000 -1.000000
vn 0.000000 0.000000 -1.000000
vn -0.000013 0.000000 -1.000000
vn -0.000000 0.000000 -1.000000
vn 0.000000 0.000000 -1.000000
vn -0.000007 0.000000 -1.000000
vn 0.000007 0.000000 -1.000000
vn 0.000000 0.000000 -1.000000
vn 0.000000 0.000000 1.000000
vn 0.000000 0.000000 1.000000
vn 0.000000 0.000000 1.000000
vn 0.000007 0.000000 1.000000
vn 0.000007 0.000000 1.000000
vn -0.000007 0.000000 1.000000
vn -0.000007 0.000000 1.000000
vn 0.000000 0.000000 1.000000
vn 0.000007 0.000000 1.000000
vn 0.000007 0.000000 1.000000
vn -0.000007 0.000000 1.000000
vn -0.000007 0.000000 1.000000
vn 0.000000 0.000000 1.000000
s 1
g group2 group1 pCylinder10
usemtl lambert23SG
f 237/509/493 238/513/494 250/514/495 251/510/496
f 238/515/494 239/516/497 261/517/498 250/518/495
f 239/516/497 240/519/499 260/520/500 261/517/498
f 240/501/499 241/495/501 259/498/502 260/502/500
f 241/495/501 242/496/503 258/497/504 259/498/502
f 242/496/503 243/499/505 257/500/506 258/497/504
f 243/499/505 244/503/507 256/504/508 257/500/506
f 244/521/507 245/522/509 255/523/510 256/524/508
f 245/522/509 246/525/511 254/526/512 255/523/510
f 246/511/511 247/505/513 253/508/514 254/512/512
f 247/505/513 248/506/515 252/507/516 253/508/514
f 248/506/515 237/509/493 251/510/496 252/507/516
s 2
f 238/527/517 237/528/518 249/529/519
f 239/531/520 238/527/517 249/529/519
f 240/533/521 239/531/520 249/529/519
f 241/535/522 240/533/521 249/529/519
f 242/537/523 241/535/522 249/529/519
f 243/539/524 242/537/523 249/529/519
f 244/538/525 243/539/524 249/529/519
f 245/536/526 244/538/525 249/529/519
f 246/534/527 245/536/526 249/529/519
f 247/532/528 246/534/527 249/529/519
f 248/530/529 247/532/528 249/529/519
f 237/528/518 248/530/529 249/529/519
s 3
f 254/540/530 262/541/531 255/542/532
f 259/550/533 262/541/531 260/552/534
f 252/545/535 262/541/531 253/543/536
f 260/552/534 262/541/531 261/551/537
f 257/546/538 262/541/531 258/548/539
f 253/543/536 262/541/531 254/540/530
f 251/547/540 250/549/541 262/541/531
f 258/548/539 262/541/531 259/550/533
f 255/542/532 262/541/531 256/544/542
f 251/547/540 262/541/531 252/545/535
f 262/541/531 250/549/541 261/551/537
f 256/544/542 262/541/531 257/546/538
