%YAML 1.1
%TAG !u! tag:unity3d.com,2011:
--- !u!114 &11400000
MonoBehaviour:
  m_ObjectHideFlags: 0
  m_CorrespondingSourceObject: {fileID: 0}
  m_PrefabInternal: {fileID: 0}
  m_GameObject: {fileID: 0}
  m_Enabled: 1
  m_EditorHideFlags: 0
  m_Script: {fileID: 11500000, guid: 6b80fe06414daa34c94e146bae48fe87, type: 3}
  m_Name: DuckGameHard
  m_EditorClassIdentifier: 
  Difficulty: 3
  time: 60
  timeCanStandWhileQuaking: 2
  Quakingtime: 7
  Earthquack: 4
