%YAML 1.1
%TAG !u! tag:unity3d.com,2011:
--- !u!114 &11400000
MonoBehaviour:
  m_ObjectHideFlags: 0
  m_CorrespondingSourceObject: {fileID: 0}
  m_PrefabInternal: {fileID: 0}
  m_GameObject: {fileID: 0}
  m_Enabled: 1
  m_EditorHideFlags: 0
  m_Script: {fileID: 11500000, guid: abbfa42759a50fd4c9e5f959182f1994, type: 3}
  m_Name: FallInLineDifficultyTutorial
  m_EditorClassIdentifier: 
  Difficulty: 0
  TypeOfGame: 0
  time: 8
  NumOfPeople: 5
