%YAML 1.1
%TAG !u! tag:unity3d.com,2011:
--- !u!114 &11400000
MonoBehaviour:
  m_ObjectHideFlags: 0
  m_CorrespondingSourceObject: {fileID: 0}
  m_PrefabInternal: {fileID: 0}
  m_GameObject: {fileID: 0}
  m_Enabled: 1
  m_EditorHideFlags: 0
  m_Script: {fileID: 11500000, guid: 09904360e348a5b4b87f0faaf8386ee4, type: 3}
  m_Name: CTEHard
  m_EditorClassIdentifier: 
  Difficulty: 3
  TypeOfGame: 0
  time: 30
  CorrectItems: 5
  IncorrectItems: 5
