# 3ds Max Wavefront OBJ Exporter v0.97b - (c)2007 guruware
# File Created: 04.11.2014 16:43:50

mtllib Cross.mtl

#
# object cross
#

v  -3.0117 0.0904 3.1338
v  -3.0257 0.0904 3.0829
v  -3.0725 0.0904 3.0355
v  -3.1229 0.0904 3.0143
v  -3.9370 0.0904 3.0131
v  -3.9370 0.0904 3.9370
v  -3.0117 0.0904 3.9370
v  -3.1229 0.0083 3.0140
v  -3.9370 0.0083 3.0130
v  -3.0115 0.0087 3.9370
v  -3.0114 0.0083 3.1334
v  -3.0257 0.0083 3.0823
v  -3.0725 0.0083 3.0351
v  -3.1229 0.0083 -3.0141
v  -3.9370 0.0083 -3.0130
v  -3.0117 0.0904 -3.1338
v  -3.0117 0.0904 -3.9370
v  -3.9370 0.0904 -3.9370
v  -3.9370 0.0904 -3.0131
v  -3.1229 0.0904 -3.0143
v  -3.0725 0.0904 -3.0355
v  -3.0256 0.0904 -3.0829
v  -3.0114 0.0083 -3.1334
v  -3.0115 0.0087 -3.9370
v  -3.0256 0.0083 -3.0823
v  -3.0725 0.0083 -3.0351
v  3.0117 0.0904 3.1338
v  3.0117 0.0904 3.9370
v  3.9370 0.0904 3.9370
v  3.9370 0.0904 3.0131
v  3.1229 0.0904 3.0143
v  3.0725 0.0904 3.0355
v  3.0256 0.0904 3.0829
v  3.1229 0.0083 3.0141
v  3.9370 0.0083 3.0130
v  3.0114 0.0083 3.1334
v  3.0115 0.0087 3.9370
v  3.0256 0.0083 3.0823
v  3.0725 0.0083 3.0351
v  3.0117 0.0904 -3.1338
v  3.0257 0.0904 -3.0829
v  3.0725 0.0904 -3.0355
v  3.1229 0.0904 -3.0143
v  3.9370 0.0904 -3.0131
v  3.9370 0.0904 -3.9370
v  3.0117 0.0904 -3.9370
v  3.1229 0.0083 -3.0140
v  3.9370 0.0083 -3.0130
v  3.0115 0.0087 -3.9370
v  3.0114 0.0083 -3.1334
v  3.0257 0.0083 -3.0823
v  3.0725 0.0083 -3.0351
# 52 vertices

vn 1.0000 -0.0000 0.0000
vn 0.0023 0.0014 1.0000
vn 0.0032 1.0000 -0.0000
vn 0.0040 0.7110 0.7032
vn 0.0037 0.9639 0.2663
vn 0.0034 0.3863 0.9224
vn 0.0023 0.0014 -1.0000
vn 0.0032 1.0000 0.0000
vn 0.0040 0.7110 -0.7032
vn 0.0037 0.9639 -0.2663
vn 0.0034 0.3863 -0.9224
vn 0.0023 -0.0014 1.0000
vn 0.0032 -1.0000 -0.0000
vn 0.0039 -0.7110 0.7032
vn 0.0036 -0.9639 0.2663
vn 0.0034 -0.3863 0.9224
vn 0.0023 -0.0014 -1.0000
vn 0.0032 -1.0000 0.0000
vn 0.0040 -0.7110 -0.7032
vn 0.0036 -0.9639 -0.2663
vn 0.0034 -0.3863 -0.9224
vn 1.0000 0.0000 -0.0005
vn 1.0000 0.0000 -0.0004
vn 1.0000 0.0000 0.0000
vn 1.0000 -0.0002 0.0000
vn 1.0000 0.0000 0.0005
vn 1.0000 0.0000 0.0004
vn 1.0000 0.0002 0.0000
# 28 vertex normals

vt 0.8980 0.1175 0.0000
vt 0.8915 0.1157 0.0000
vt 0.8855 0.1098 0.0000
vt 0.8828 0.1034 0.0000
vt 0.8827 0.0000 0.0000
vt 1.0000 0.0000 0.0000
vt 1.0000 0.1175 0.0000
vt 0.0085 0.1168 0.0000
vt 0.0885 0.1168 0.0000
vt 0.0885 0.1249 0.0000
vt 0.0085 0.1249 0.0000
vt 0.0825 0.1246 0.0000
vt 0.0035 0.1246 0.0000
vt 0.0035 0.1166 0.0000
vt 0.0825 0.1165 0.0000
vt 0.0876 0.1165 0.0000
vt 0.0922 0.1165 0.0000
vt 0.0922 0.1246 0.0000
vt 0.0875 0.1246 0.0000
vt 0.0035 0.1168 0.0000
vt 0.0035 0.1249 0.0000
vt 0.1172 0.1034 0.0000
vt 0.1173 0.0000 0.0000
vt 0.1020 0.1175 0.0000
vt 0.0000 0.1175 0.0000
vt 0.0000 0.0000 0.0000
vt 0.1145 0.1098 0.0000
vt 0.1085 0.1157 0.0000
vt 0.0829 0.1167 0.0000
vt 0.0829 0.1247 0.0000
vt 0.0029 0.1247 0.0000
vt 0.0029 0.1167 0.0000
vt 0.0132 0.1256 0.0000
vt 0.0132 0.1175 0.0000
vt 0.0922 0.1175 0.0000
vt 0.0922 0.1256 0.0000
vt 0.0081 0.1175 0.0000
vt 0.0082 0.1256 0.0000
vt 0.0035 0.1256 0.0000
vt 0.0035 0.1175 0.0000
vt 0.0879 0.1167 0.0000
vt 0.0879 0.1247 0.0000
vt 0.8980 0.8825 0.0000
vt 1.0000 0.8825 0.0000
vt 1.0000 1.0000 0.0000
vt 0.8827 1.0000 0.0000
vt 0.8828 0.8966 0.0000
vt 0.8855 0.8902 0.0000
vt 0.8915 0.8843 0.0000
vt 0.0836 0.1169 0.0000
vt 0.0836 0.1250 0.0000
vt 0.0035 0.1250 0.0000
vt 0.0035 0.1169 0.0000
vt 0.0132 0.1249 0.0000
vt 0.0132 0.1168 0.0000
vt 0.0922 0.1169 0.0000
vt 0.0922 0.1249 0.0000
vt 0.0081 0.1168 0.0000
vt 0.0082 0.1249 0.0000
vt 0.0885 0.1169 0.0000
vt 0.0885 0.1250 0.0000
vt 0.1020 0.8825 0.0000
vt 0.1085 0.8843 0.0000
vt 0.1145 0.8902 0.0000
vt 0.1172 0.8966 0.0000
vt 0.1173 1.0000 0.0000
vt 0.0000 1.0000 0.0000
vt 0.0000 0.8825 0.0000
vt 0.0085 0.1174 0.0000
vt 0.0885 0.1174 0.0000
vt 0.0885 0.1255 0.0000
vt 0.0085 0.1255 0.0000
vt 0.0825 0.1251 0.0000
vt 0.0035 0.1251 0.0000
vt 0.0035 0.1170 0.0000
vt 0.0825 0.1170 0.0000
vt 0.0876 0.1170 0.0000
vt 0.0922 0.1170 0.0000
vt 0.0922 0.1251 0.0000
vt 0.0875 0.1251 0.0000
vt 0.0035 0.1174 0.0000
vt 0.0035 0.1255 0.0000
vt 0.1021 0.8825 0.0000
vt 0.1021 0.1175 0.0000
vt 0.8979 0.1175 0.0000
vt 0.8979 0.8825 0.0000
# 86 texture coords

g cross
usemtl Cross_mat
s off
f 1/1/1 2/2/1 3/3/1 
f 1/1/1 3/3/1 4/4/1 
f 1/1/1 4/4/1 5/5/1 
f 1/1/1 5/5/1 6/6/1 
f 1/1/1 6/6/1 7/7/1 
f 8/8/2 9/9/2 5/10/2 
f 5/10/2 4/11/2 8/8/2 
f 1/12/3 7/13/3 10/14/3 
f 10/14/3 11/15/3 1/12/3 
f 12/16/4 13/17/4 3/18/4 
f 3/18/4 2/19/4 12/16/4 
f 11/15/5 12/16/5 2/19/5 
f 2/19/5 1/12/5 11/15/5 
f 13/20/6 8/8/6 4/11/6 
f 4/11/6 3/21/6 13/20/6 
f 8/4/1 14/22/1 15/23/1 
f 15/23/1 9/5/1 8/4/1 
f 16/24/1 17/25/1 18/26/1 
f 16/24/1 18/26/1 19/23/1 
f 16/24/1 19/23/1 20/22/1 
f 16/24/1 20/22/1 21/27/1 
f 16/24/1 21/27/1 22/28/1 
f 14/29/7 20/30/7 19/31/7 
f 19/31/7 15/32/7 14/29/7 
f 16/33/8 23/34/8 24/35/8 
f 24/35/8 17/36/8 16/33/8 
f 25/37/9 22/38/9 21/39/9 
f 21/39/9 26/40/9 25/37/9 
f 23/34/10 16/33/10 22/38/10 
f 22/38/10 25/37/10 23/34/10 
f 26/41/11 21/42/11 20/30/11 
f 20/30/11 14/29/11 26/41/11 
f 27/43/1 28/44/1 29/45/1 
f 27/43/1 29/45/1 30/46/1 
f 27/43/1 30/46/1 31/47/1 
f 27/43/1 31/47/1 32/48/1 
f 27/43/1 32/48/1 33/49/1 
f 34/50/12 31/51/12 30/52/12 
f 30/52/12 35/53/12 34/50/12 
f 27/54/13 36/55/13 37/56/13 
f 37/56/13 28/57/13 27/54/13 
f 38/58/14 33/59/14 32/21/14 
f 32/21/14 39/20/14 38/58/14 
f 36/55/15 27/54/15 33/59/15 
f 33/59/15 38/58/15 36/55/15 
f 39/60/16 32/61/16 31/51/16 
f 31/51/16 34/50/16 39/60/16 
f 40/62/1 41/63/1 42/64/1 
f 40/62/1 42/64/1 43/65/1 
f 40/62/1 43/65/1 44/66/1 
f 40/62/1 44/66/1 45/67/1 
f 40/62/1 45/67/1 46/68/1 
f 47/69/17 48/70/17 44/71/17 
f 44/71/17 43/72/17 47/69/17 
f 40/73/18 46/74/18 49/75/18 
f 49/75/18 50/76/18 40/73/18 
f 51/77/19 52/78/19 42/79/19 
f 42/79/19 41/80/19 51/77/19 
f 50/76/20 51/77/20 41/80/20 
f 41/80/20 40/73/20 50/76/20 
f 52/81/21 47/69/21 43/72/21 
f 43/72/21 42/82/21 52/81/21 
f 51/63/22 50/83/22 23/84/22 
f 23/84/22 25/28/22 51/63/22 
f 50/83/23 49/68/23 24/25/23 
f 24/25/23 23/84/23 50/83/23 
f 13/3/24 12/2/24 38/49/24 
f 13/3/24 38/49/24 39/48/24 
f 13/3/24 39/48/24 52/64/24 
f 13/3/24 52/64/24 51/63/24 
f 13/3/24 51/63/24 25/28/24 
f 13/3/24 25/28/24 26/27/24 
f 8/4/25 13/3/25 26/27/25 
f 26/27/25 14/22/25 8/4/25 
f 12/2/26 11/85/26 36/86/26 
f 36/86/26 38/49/26 12/2/26 
f 11/85/27 10/7/27 37/44/27 
f 37/44/27 36/86/27 11/85/27 
f 39/48/28 34/47/28 47/65/28 
f 47/65/28 52/64/28 39/48/28 
f 34/47/1 35/46/1 48/66/1 
f 48/66/1 47/65/1 34/47/1 
# 82 faces

