# 3ds Max Wavefront OBJ Exporter v0.97b - (c)2007 guruware
# File Created: 04.11.2014 16:41:44

mtllib Road_02.mtl

#
# object road_02
#

v  -3.0118 0.0168 -3.9370
v  3.0118 0.0168 -3.9370
v  3.0118 0.0168 3.9370
v  -3.0118 0.0169 3.9370
v  3.0118 0.0990 -3.9370
v  3.9370 0.0990 -3.9370
v  3.9370 0.0990 3.9370
v  3.0118 0.0990 3.9370
v  -3.0118 0.0990 3.9370
v  -3.9370 0.0990 3.9370
v  -3.9370 0.0990 -3.9370
v  -3.0118 0.0990 -3.9370
v  3.9370 0.0169 -3.9370
v  3.9370 0.0169 3.9370
v  -3.9370 0.0169 3.9370
v  -3.9370 0.0169 -3.9370
# 16 vertices

vn -0.0000 0.0000 -1.0000
vn -0.0000 -0.0000 -1.0000
vn -1.0000 -0.0000 -0.0000
vn 1.0000 -0.0000 -0.0000
vn -1.0000 -0.0000 0.0000
vn 1.0000 0.0000 -0.0000
# 6 vertex normals

vt 0.8825 1.0000 0.0000
vt 0.1175 1.0000 0.0000
vt 0.1175 0.0000 0.0000
vt 0.8825 0.0000 0.0000
vt 0.0000 1.0000 0.0000
vt 0.0000 0.0000 0.0000
vt 1.0000 0.0000 0.0000
vt 1.0000 1.0000 0.0000
vt 0.1178 1.0008 0.0000
vt 0.1178 -0.0008 0.0000
vt 0.1288 -0.0008 0.0000
vt 0.1288 1.0008 0.0000
vt 0.8782 0.9627 0.0000
vt 0.8782 0.1528 0.0000
vt 0.8867 0.1528 0.0000
vt 0.8867 0.9627 0.0000
vt 0.8781 0.9627 0.0000
vt 0.8781 0.1528 0.0000
vt 0.8865 0.1528 0.0000
vt 0.8865 0.9627 0.0000
# 20 texture coords

g road_02
usemtl Road_mat2
s off
f 3/3/1 2/2/1 1/1/1 
f 1/1/1 4/4/1 3/3/1 
f 7/6/2 6/5/2 5/2/2 
f 5/2/2 8/3/2 7/6/2 
f 11/8/2 10/7/2 9/4/2 
f 9/4/2 12/1/2 11/8/2 
f 1/11/3 12/10/3 9/9/3 
f 9/9/3 4/12/3 1/11/3 
f 3/12/4 8/9/4 5/10/4 
f 5/10/4 2/11/4 3/12/4 
f 13/15/5 6/14/5 7/13/5 
f 7/13/5 14/16/5 13/15/5 
f 15/19/6 10/18/6 11/17/6 
f 11/17/6 16/20/6 15/19/6 
# 14 faces

