%YAML 1.1
%TAG !u! tag:unity3d.com,2011:
--- !u!114 &11400000
MonoBehaviour:
  m_ObjectHideFlags: 0
  m_CorrespondingSourceObject: {fileID: 0}
  m_PrefabInternal: {fileID: 0}
  m_GameObject: {fileID: 0}
  m_Enabled: 1
  m_EditorHideFlags: 0
  m_Script: {fileID: 11500000, guid: ca7a63e0641f8a246805e915368e3f39, type: 3}
  m_Name: DTFMedium
  m_EditorClassIdentifier: 
  Difficulty: 2
  TypeOfGame: 0
  time: 13
  Rounds: 7
