%YAML 1.1
%TAG !u! tag:unity3d.com,2011:
--- !u!74 &7400000
AnimationClip:
  m_ObjectHideFlags: 0
  m_CorrespondingSourceObject: {fileID: 0}
  m_PrefabInternal: {fileID: 0}
  m_Name: DriveToSafeAreaCrashonRamp
  serializedVersion: 6
  m_Legacy: 0
  m_Compressed: 0
  m_UseHighQualityCurve: 1
  m_RotationCurves: []
  m_CompressedRotationCurves: []
  m_EulerCurves: []
  m_PositionCurves: []
  m_ScaleCurves: []
  m_FloatCurves: []
  m_PPtrCurves:
  - curve:
    - time: 0
      value: {fileID: 21300000, guid: fcfd8a8d444c30a4a80729e41928e5ad, type: 3}
    - time: 0.083333336
      value: {fileID: 21300000, guid: 8f69f877e93d8db4895967c9773c574b, type: 3}
    - time: 0.16666667
      value: {fileID: 21300000, guid: 01cc68bdb5a30884bb360b7177987678, type: 3}
    - time: 0.25
      value: {fileID: 21300000, guid: b9a987e97e78e544a886ee9e103b96b4, type: 3}
    - time: 0.33333334
      value: {fileID: 21300000, guid: b80e402ff92bf16408cb59e594472ff5, type: 3}
    - time: 0.41666666
      value: {fileID: 21300000, guid: b73f3dde34d8be24885cafbc3ec0c622, type: 3}
    - time: 0.5
      value: {fileID: 21300000, guid: f563d39c3ca998848a37bd4b7492b0a2, type: 3}
    - time: 0.5833333
      value: {fileID: 21300000, guid: 8c961516e101e4f4e82230ecf1439162, type: 3}
    - time: 0.6666667
      value: {fileID: 21300000, guid: 30594c039c9645743a03694c5178c784, type: 3}
    - time: 0.75
      value: {fileID: 21300000, guid: a75d0e48118ed92469c75c155bda996c, type: 3}
    - time: 0.8333333
      value: {fileID: 21300000, guid: 453b537d6004aee4b87edef131f3ae9a, type: 3}
    - time: 0.9166667
      value: {fileID: 21300000, guid: 409eef1b8fc7a3342bb7700849816087, type: 3}
    - time: 1
      value: {fileID: 21300000, guid: 6f38ec81d4f94254fba9767ed23a7c90, type: 3}
    - time: 1.0833334
      value: {fileID: 21300000, guid: d5238157b9e237346b7ed8c5f71f80a3, type: 3}
    - time: 1.1666666
      value: {fileID: 21300000, guid: 713a8fe9b8380414fbfba8fb2655c63a, type: 3}
    - time: 1.25
      value: {fileID: 21300000, guid: b861aa1c9ba39c94a878019a1dbecd4f, type: 3}
    - time: 1.3333334
      value: {fileID: 21300000, guid: 3474fda60591dbd4ca62a88d757ee388, type: 3}
    - time: 1.4166666
      value: {fileID: 21300000, guid: ec2e57c9dc9e4c3498fa7676c8e64230, type: 3}
    - time: 1.5
      value: {fileID: 21300000, guid: ce198bcb9e5911f46a66d2171c9e0cd6, type: 3}
    attribute: m_Sprite
    path: 
    classID: 212
    script: {fileID: 0}
  m_SampleRate: 12
  m_WrapMode: 0
  m_Bounds:
    m_Center: {x: 0, y: 0, z: 0}
    m_Extent: {x: 0, y: 0, z: 0}
  m_ClipBindingConstant:
    genericBindings:
    - serializedVersion: 2
      path: 0
      attribute: 0
      script: {fileID: 0}
      typeID: 212
      customType: 23
      isPPtrCurve: 1
    pptrCurveMapping:
    - {fileID: 21300000, guid: fcfd8a8d444c30a4a80729e41928e5ad, type: 3}
    - {fileID: 21300000, guid: 8f69f877e93d8db4895967c9773c574b, type: 3}
    - {fileID: 21300000, guid: 01cc68bdb5a30884bb360b7177987678, type: 3}
    - {fileID: 21300000, guid: b9a987e97e78e544a886ee9e103b96b4, type: 3}
    - {fileID: 21300000, guid: b80e402ff92bf16408cb59e594472ff5, type: 3}
    - {fileID: 21300000, guid: b73f3dde34d8be24885cafbc3ec0c622, type: 3}
    - {fileID: 21300000, guid: f563d39c3ca998848a37bd4b7492b0a2, type: 3}
    - {fileID: 21300000, guid: 8c961516e101e4f4e82230ecf1439162, type: 3}
    - {fileID: 21300000, guid: 30594c039c9645743a03694c5178c784, type: 3}
    - {fileID: 21300000, guid: a75d0e48118ed92469c75c155bda996c, type: 3}
    - {fileID: 21300000, guid: 453b537d6004aee4b87edef131f3ae9a, type: 3}
    - {fileID: 21300000, guid: 409eef1b8fc7a3342bb7700849816087, type: 3}
    - {fileID: 21300000, guid: 6f38ec81d4f94254fba9767ed23a7c90, type: 3}
    - {fileID: 21300000, guid: d5238157b9e237346b7ed8c5f71f80a3, type: 3}
    - {fileID: 21300000, guid: 713a8fe9b8380414fbfba8fb2655c63a, type: 3}
    - {fileID: 21300000, guid: b861aa1c9ba39c94a878019a1dbecd4f, type: 3}
    - {fileID: 21300000, guid: 3474fda60591dbd4ca62a88d757ee388, type: 3}
    - {fileID: 21300000, guid: ec2e57c9dc9e4c3498fa7676c8e64230, type: 3}
    - {fileID: 21300000, guid: ce198bcb9e5911f46a66d2171c9e0cd6, type: 3}
  m_AnimationClipSettings:
    serializedVersion: 2
    m_AdditiveReferencePoseClip: {fileID: 0}
    m_AdditiveReferencePoseTime: 0
    m_StartTime: 0
    m_StopTime: 1.5833334
    m_OrientationOffsetY: 0
    m_Level: 0
    m_CycleOffset: 0
    m_HasAdditiveReferencePose: 0
    m_LoopTime: 0
    m_LoopBlend: 0
    m_LoopBlendOrientation: 0
    m_LoopBlendPositionY: 0
    m_LoopBlendPositionXZ: 0
    m_KeepOriginalOrientation: 0
    m_KeepOriginalPositionY: 1
    m_KeepOriginalPositionXZ: 0
    m_HeightFromFeet: 0
    m_Mirror: 0
  m_EditorCurves: []
  m_EulerEditorCurves: []
  m_HasGenericRootTransform: 0
  m_HasMotionFloatCurves: 0
  m_GenerateMotionCurves: 0
  m_Events: []
