%YAML 1.1
%TAG !u! tag:unity3d.com,2011:
--- !u!74 &7400000
AnimationClip:
  m_ObjectHideFlags: 0
  m_CorrespondingSourceObject: {fileID: 0}
  m_PrefabInternal: {fileID: 0}
  m_Name: FireFlicking
  serializedVersion: 6
  m_Legacy: 0
  m_Compressed: 0
  m_UseHighQualityCurve: 1
  m_RotationCurves: []
  m_CompressedRotationCurves: []
  m_EulerCurves: []
  m_PositionCurves: []
  m_ScaleCurves: []
  m_FloatCurves: []
  m_PPtrCurves:
  - curve:
    - time: 0
      value: {fileID: 21300000, guid: 5c8b238f735cf7d4d8d4f4d6edd6bcc2, type: 3}
    - time: 0.083333336
      value: {fileID: 21300000, guid: 5ad000d9390f6364bba469642adc8fb3, type: 3}
    - time: 0.16666667
      value: {fileID: 21300000, guid: a31953c03866f9c48ab29f82c419b427, type: 3}
    - time: 0.25
      value: {fileID: 21300000, guid: 6fa954098536599449241800a8f1627b, type: 3}
    - time: 0.33333334
      value: {fileID: 21300000, guid: 1cdaa04c97f6b6c46b7b8ecd0139f40d, type: 3}
    - time: 0.41666666
      value: {fileID: 21300000, guid: 0ff839d29937f7f4794b37764cd0dfbf, type: 3}
    - time: 0.5
      value: {fileID: 21300000, guid: d5c1f9cb31ced564e94de2ee2d1e896c, type: 3}
    - time: 0.5833333
      value: {fileID: 21300000, guid: ad98c519460fb77459e65ce7b8f1803f, type: 3}
    - time: 0.6666667
      value: {fileID: 21300000, guid: 5cf8fe4575e29f34eaaa806b0432211a, type: 3}
    - time: 0.75
      value: {fileID: 21300000, guid: 8037220e7f99d7c469e8bb69099ac343, type: 3}
    attribute: m_Sprite
    path: 
    classID: 212
    script: {fileID: 0}
  m_SampleRate: 12
  m_WrapMode: 0
  m_Bounds:
    m_Center: {x: 0, y: 0, z: 0}
    m_Extent: {x: 0, y: 0, z: 0}
  m_ClipBindingConstant:
    genericBindings:
    - serializedVersion: 2
      path: 0
      attribute: 0
      script: {fileID: 0}
      typeID: 212
      customType: 23
      isPPtrCurve: 1
    pptrCurveMapping:
    - {fileID: 21300000, guid: 5c8b238f735cf7d4d8d4f4d6edd6bcc2, type: 3}
    - {fileID: 21300000, guid: 5ad000d9390f6364bba469642adc8fb3, type: 3}
    - {fileID: 21300000, guid: a31953c03866f9c48ab29f82c419b427, type: 3}
    - {fileID: 21300000, guid: 6fa954098536599449241800a8f1627b, type: 3}
    - {fileID: 21300000, guid: 1cdaa04c97f6b6c46b7b8ecd0139f40d, type: 3}
    - {fileID: 21300000, guid: 0ff839d29937f7f4794b37764cd0dfbf, type: 3}
    - {fileID: 21300000, guid: d5c1f9cb31ced564e94de2ee2d1e896c, type: 3}
    - {fileID: 21300000, guid: ad98c519460fb77459e65ce7b8f1803f, type: 3}
    - {fileID: 21300000, guid: 5cf8fe4575e29f34eaaa806b0432211a, type: 3}
    - {fileID: 21300000, guid: 8037220e7f99d7c469e8bb69099ac343, type: 3}
  m_AnimationClipSettings:
    serializedVersion: 2
    m_AdditiveReferencePoseClip: {fileID: 0}
    m_AdditiveReferencePoseTime: 0
    m_StartTime: 0
    m_StopTime: 0.8333333
    m_OrientationOffsetY: 0
    m_Level: 0
    m_CycleOffset: 0
    m_HasAdditiveReferencePose: 0
    m_LoopTime: 1
    m_LoopBlend: 0
    m_LoopBlendOrientation: 0
    m_LoopBlendPositionY: 0
    m_LoopBlendPositionXZ: 0
    m_KeepOriginalOrientation: 0
    m_KeepOriginalPositionY: 1
    m_KeepOriginalPositionXZ: 0
    m_HeightFromFeet: 0
    m_Mirror: 0
  m_EditorCurves: []
  m_EulerEditorCurves: []
  m_HasGenericRootTransform: 0
  m_HasMotionFloatCurves: 0
  m_GenerateMotionCurves: 0
  m_Events: []
