%YAML 1.1
%TAG !u! tag:unity3d.com,2011:
--- !u!74 &7400000
AnimationClip:
  m_ObjectHideFlags: 0
  m_CorrespondingSourceObject: {fileID: 0}
  m_PrefabInternal: {fileID: 0}
  m_Name: HeartIdle
  serializedVersion: 6
  m_Legacy: 0
  m_Compressed: 0
  m_UseHighQualityCurve: 1
  m_RotationCurves: []
  m_CompressedRotationCurves: []
  m_EulerCurves: []
  m_PositionCurves: []
  m_ScaleCurves: []
  m_FloatCurves: []
  m_PPtrCurves:
  - curve:
    - time: 0
      value: {fileID: 21300000, guid: 9ae5b42f18a07ec49a82f403030e5277, type: 3}
    - time: 0.25
      value: {fileID: 21300000, guid: 8a2ec7bbab151874bb1b8f06732e5bae, type: 3}
    - time: 0.5
      value: {fileID: 21300000, guid: 14e1769c8c4957141897487a6866d8a6, type: 3}
    - time: 0.75
      value: {fileID: 21300000, guid: c0a302c2838ffe74bade7d4a5ce99910, type: 3}
    - time: 1
      value: {fileID: 21300000, guid: d0cc76f3e2fe7b342a011f63920b30cf, type: 3}
    attribute: m_Sprite
    path: 
    classID: 114
    script: {fileID: -765806418, guid: f70555f144d8491a825f0804e09c671c, type: 3}
  m_SampleRate: 60
  m_WrapMode: 0
  m_Bounds:
    m_Center: {x: 0, y: 0, z: 0}
    m_Extent: {x: 0, y: 0, z: 0}
  m_ClipBindingConstant:
    genericBindings:
    - serializedVersion: 2
      path: 0
      attribute: 2015549526
      script: {fileID: -765806418, guid: f70555f144d8491a825f0804e09c671c, type: 3}
      typeID: 114
      customType: 0
      isPPtrCurve: 1
    pptrCurveMapping:
    - {fileID: 21300000, guid: 9ae5b42f18a07ec49a82f403030e5277, type: 3}
    - {fileID: 21300000, guid: 8a2ec7bbab151874bb1b8f06732e5bae, type: 3}
    - {fileID: 21300000, guid: 14e1769c8c4957141897487a6866d8a6, type: 3}
    - {fileID: 21300000, guid: c0a302c2838ffe74bade7d4a5ce99910, type: 3}
    - {fileID: 21300000, guid: d0cc76f3e2fe7b342a011f63920b30cf, type: 3}
  m_AnimationClipSettings:
    serializedVersion: 2
    m_AdditiveReferencePoseClip: {fileID: 0}
    m_AdditiveReferencePoseTime: 0
    m_StartTime: 0
    m_StopTime: 1.0166667
    m_OrientationOffsetY: 0
    m_Level: 0
    m_CycleOffset: 0
    m_HasAdditiveReferencePose: 0
    m_LoopTime: 1
    m_LoopBlend: 0
    m_LoopBlendOrientation: 0
    m_LoopBlendPositionY: 0
    m_LoopBlendPositionXZ: 0
    m_KeepOriginalOrientation: 0
    m_KeepOriginalPositionY: 1
    m_KeepOriginalPositionXZ: 0
    m_HeightFromFeet: 0
    m_Mirror: 0
  m_EditorCurves: []
  m_EulerEditorCurves: []
  m_HasGenericRootTransform: 0
  m_HasMotionFloatCurves: 0
  m_GenerateMotionCurves: 0
  m_Events: []
