%YAML 1.1
%TAG !u! tag:unity3d.com,2011:
--- !u!74 &7400000
AnimationClip:
  m_ObjectHideFlags: 0
  m_CorrespondingSourceObject: {fileID: 0}
  m_PrefabInternal: {fileID: 0}
  m_Name: LoadingBackground
  serializedVersion: 6
  m_Legacy: 0
  m_Compressed: 0
  m_UseHighQualityCurve: 1
  m_RotationCurves: []
  m_CompressedRotationCurves: []
  m_EulerCurves: []
  m_PositionCurves: []
  m_ScaleCurves: []
  m_FloatCurves: []
  m_PPtrCurves:
  - curve:
    - time: 0
      value: {fileID: 21300000, guid: aa73cdcc84192724d89a0875bf71db45, type: 3}
    - time: 0.033333335
      value: {fileID: 21300000, guid: a21c44d2154e56d4a9139f1ca0e3d601, type: 3}
    - time: 0.06666667
      value: {fileID: 21300000, guid: 5f8e3f7261e51254795cd382aa84d495, type: 3}
    - time: 0.1
      value: {fileID: 21300000, guid: 5f8d9a2d07d1fd84496e84d7ec85bc77, type: 3}
    - time: 0.13333334
      value: {fileID: 21300000, guid: d5637c1450cacc8439e4e42dba2b901a, type: 3}
    - time: 0.16666667
      value: {fileID: 21300000, guid: 87f194fd50461d74d8b2a4e13f66a8d0, type: 3}
    - time: 0.2
      value: {fileID: 21300000, guid: 17aefef81d50bff499bef89612d8a3e9, type: 3}
    - time: 0.23333333
      value: {fileID: 21300000, guid: 17aefef81d50bff499bef89612d8a3e9, type: 3}
    - time: 0.26666668
      value: {fileID: 21300000, guid: 64a288bc09d676d41a598e8363c6024a, type: 3}
    - time: 0.3
      value: {fileID: 21300000, guid: c51fea01807d975488bdbc6b12b23b61, type: 3}
    - time: 0.33333334
      value: {fileID: 21300000, guid: a9c4984edc39eff4481f617ab19364e6, type: 3}
    - time: 0.36666667
      value: {fileID: 21300000, guid: 48ead0a84fb03c74c96f6c630a98e89c, type: 3}
    - time: 0.4
      value: {fileID: 21300000, guid: 3684f1d2434e6ee49ab52e616109f9db, type: 3}
    - time: 0.43333334
      value: {fileID: 21300000, guid: 8215b71adc0dba14ebd1548a70874c10, type: 3}
    - time: 0.46666667
      value: {fileID: 21300000, guid: 08f3296f0ec9f9040bea3b0856d796a7, type: 3}
    attribute: m_Sprite
    path: 
    classID: 114
    script: {fileID: -765806418, guid: f70555f144d8491a825f0804e09c671c, type: 3}
  m_SampleRate: 60
  m_WrapMode: 0
  m_Bounds:
    m_Center: {x: 0, y: 0, z: 0}
    m_Extent: {x: 0, y: 0, z: 0}
  m_ClipBindingConstant:
    genericBindings:
    - serializedVersion: 2
      path: 0
      attribute: 2015549526
      script: {fileID: -765806418, guid: f70555f144d8491a825f0804e09c671c, type: 3}
      typeID: 114
      customType: 0
      isPPtrCurve: 1
    pptrCurveMapping:
    - {fileID: 21300000, guid: aa73cdcc84192724d89a0875bf71db45, type: 3}
    - {fileID: 21300000, guid: a21c44d2154e56d4a9139f1ca0e3d601, type: 3}
    - {fileID: 21300000, guid: 5f8e3f7261e51254795cd382aa84d495, type: 3}
    - {fileID: 21300000, guid: 5f8d9a2d07d1fd84496e84d7ec85bc77, type: 3}
    - {fileID: 21300000, guid: d5637c1450cacc8439e4e42dba2b901a, type: 3}
    - {fileID: 21300000, guid: 87f194fd50461d74d8b2a4e13f66a8d0, type: 3}
    - {fileID: 21300000, guid: 17aefef81d50bff499bef89612d8a3e9, type: 3}
    - {fileID: 21300000, guid: 17aefef81d50bff499bef89612d8a3e9, type: 3}
    - {fileID: 21300000, guid: 64a288bc09d676d41a598e8363c6024a, type: 3}
    - {fileID: 21300000, guid: c51fea01807d975488bdbc6b12b23b61, type: 3}
    - {fileID: 21300000, guid: a9c4984edc39eff4481f617ab19364e6, type: 3}
    - {fileID: 21300000, guid: 48ead0a84fb03c74c96f6c630a98e89c, type: 3}
    - {fileID: 21300000, guid: 3684f1d2434e6ee49ab52e616109f9db, type: 3}
    - {fileID: 21300000, guid: 8215b71adc0dba14ebd1548a70874c10, type: 3}
    - {fileID: 21300000, guid: 08f3296f0ec9f9040bea3b0856d796a7, type: 3}
  m_AnimationClipSettings:
    serializedVersion: 2
    m_AdditiveReferencePoseClip: {fileID: 0}
    m_AdditiveReferencePoseTime: 0
    m_StartTime: 0
    m_StopTime: 0.48333335
    m_OrientationOffsetY: 0
    m_Level: 0
    m_CycleOffset: 0
    m_HasAdditiveReferencePose: 0
    m_LoopTime: 1
    m_LoopBlend: 0
    m_LoopBlendOrientation: 0
    m_LoopBlendPositionY: 0
    m_LoopBlendPositionXZ: 0
    m_KeepOriginalOrientation: 0
    m_KeepOriginalPositionY: 1
    m_KeepOriginalPositionXZ: 0
    m_HeightFromFeet: 0
    m_Mirror: 0
  m_EditorCurves: []
  m_EulerEditorCurves: []
  m_HasGenericRootTransform: 0
  m_HasMotionFloatCurves: 0
  m_GenerateMotionCurves: 0
  m_Events: []
