# This file uses centimeters as units for non-parametric coordinates.

mtllib Blue_Car_Final.mtl
g default
v -15.974582 0.873714 19.493099
v -8.711673 0.864429 19.278920
v -15.974582 1.727720 19.493099
v -8.711673 1.453096 19.278920
v -15.974582 1.727720 15.804818
v -8.711673 1.453096 16.018997
v -15.974582 0.873714 15.804818
v -8.711673 0.864429 16.018997
v -11.006992 1.727720 19.493099
v -11.006992 1.727720 15.804818
v -11.006992 1.183453 15.804818
v -11.006992 1.183451 19.493099
v -11.564512 1.727720 19.493099
v -11.564512 1.727720 15.804818
v -11.540063 0.873714 15.804818
v -11.540063 0.873714 19.493099
v -10.464618 1.635108 19.493099
v -10.464618 1.635108 15.804818
v -10.489064 0.873714 15.804818
v -10.489064 0.873714 19.493099
v -14.567922 1.727720 19.493099
v -14.567922 1.727720 15.804818
v -14.567922 1.183453 15.804818
v -14.567922 1.183451 19.493099
v -15.141632 1.727720 19.493099
v -15.141632 1.727720 15.804818
v -15.090631 0.873714 15.804818
v -15.090631 0.873714 19.493099
v -13.994207 1.727720 19.493099
v -13.994207 1.727720 15.804818
v -14.045209 0.873714 15.804818
v -14.045209 0.873714 19.493099
v -14.889398 1.727720 19.493099
v -14.889398 1.727720 15.804818
v -14.857245 1.113243 15.804818
v -14.857245 1.113243 19.493099
v -14.246449 1.727720 19.493099
v -14.246449 1.727720 15.804818
v -14.278597 1.113243 15.804818
v -14.278597 1.113243 19.493099
v -11.338355 1.727720 19.493099
v -11.338355 1.727720 15.804818
v -11.294174 1.113243 15.804818
v -11.294174 1.113243 19.493099
v -10.675624 1.666841 19.493099
v -10.675624 1.666841 15.804818
v -10.719809 1.113243 15.804818
v -10.719809 1.113243 19.493099
v -8.711673 0.971180 16.018997
v -10.489064 0.980465 15.804818
v -10.719809 1.190052 15.804818
v -11.006992 1.251486 15.804818
v -11.294174 1.190052 15.804818
v -11.540063 0.980465 15.804818
v -14.045209 0.980465 15.804818
v -14.278597 1.190052 15.804818
v -14.567922 1.251486 15.804818
v -14.857245 1.190052 15.804818
v -15.090631 0.980465 15.804818
v -15.974582 0.980465 15.804818
v -15.974582 0.980465 19.493099
v -15.090631 0.980465 19.493099
v -14.857245 1.190052 19.493099
v -14.567922 1.251485 19.493099
v -14.278597 1.190052 19.493099
v -14.045209 0.980465 19.493099
v -11.540063 0.980465 19.493099
v -11.294174 1.190052 19.493099
v -11.006992 1.251485 19.493099
v -10.719809 1.190052 19.493099
v -10.489064 0.980465 19.493099
v -8.711673 0.971180 19.278920
v -11.840123 3.248576 19.186851
v -11.586006 3.248576 19.186851
v -11.586006 3.248576 16.111060
v -11.840123 3.248576 16.111060
v -12.013555 3.248576 16.111060
v -12.013555 3.248576 19.186851
v -13.876851 3.248576 16.111060
v -13.876851 3.248576 19.186851
v -14.070291 3.248576 16.111060
v -14.070291 3.248576 19.186851
v -14.316824 3.248576 16.111060
v -14.316824 3.248576 19.186851
v -14.563358 3.248576 16.111060
v -14.563358 3.248576 19.186851
v -14.756791 3.248576 16.111060
v -14.756791 3.248576 19.186851
v -15.395567 3.248576 16.111060
v -15.395567 3.248576 19.186851
vt 0.383243 0.933414
vt 0.383243 0.991347
vt 0.966370 0.657414
vt 0.642079 0.657414
vt 0.642079 0.583251
vt 0.966370 0.583251
vt 0.987676 0.685425
vt 0.620772 0.685425
vt 0.987676 0.690308
vt 0.620772 0.690308
vt 0.318387 0.991347
vt 0.318387 0.929866
vt 0.377959 0.622793
vt 0.383243 0.645840
vt 0.341910 0.645840
vt 0.336578 0.625866
vt 0.987676 0.699677
vt 0.620772 0.699677
vt 0.383243 0.668887
vt 0.383243 0.684617
vt 0.318387 0.682917
vt 0.336578 0.665814
vt 0.359408 0.486196
vt 0.375205 0.608117
vt 0.318387 0.609817
vt 0.317581 0.486196
vt 0.383243 0.871152
vt 0.383243 0.893511
vt 0.341910 0.893511
vt 0.336578 0.873388
vt 0.383243 0.915870
vt 0.336578 0.913634
vt 0.383243 0.853608
vt 0.318387 0.857155
vt 0.309122 0.857155
vt 0.309122 0.682917
vt 0.329911 0.665814
vt 0.336005 0.645840
vt 0.329911 0.625866
vt 0.309122 0.609817
vt 0.308316 0.486196
vt 0.309122 0.991347
vt 0.309122 0.929866
vt 0.329911 0.913634
vt 0.336005 0.893511
vt 0.329911 0.873388
vt 0.515242 0.686112
vt 0.515242 0.703787
vt 0.515242 0.715849
vt 0.515242 0.845445
vt 0.515242 0.858899
vt 0.515242 0.876046
vt 0.515242 0.893193
vt 0.515242 0.906647
vt 0.515242 0.951075
vt 0.524930 0.316015
vt 0.524930 0.373949
vt 0.589305 0.377496
vt 0.589305 0.316015
vt 0.524930 0.661524
vt 0.530174 0.684572
vt 0.571249 0.681499
vt 0.565957 0.661524
vt 0.524930 0.622747
vt 0.524930 0.638477
vt 0.571249 0.641550
vt 0.589305 0.624448
vt 0.589305 0.697548
vt 0.532908 0.699248
vt 0.548588 0.821170
vt 0.590105 0.821170
vt 0.524930 0.413852
vt 0.524930 0.436211
vt 0.571249 0.433975
vt 0.565956 0.413852
vt 0.524930 0.391493
vt 0.571249 0.393729
vt 0.524930 0.453756
vt 0.589305 0.450208
vt 0.599301 0.821170
vt 0.598501 0.697548
vt 0.577866 0.681499
vt 0.571818 0.661524
vt 0.577866 0.641550
vt 0.598501 0.624448
vt 0.598501 0.450208
vt 0.577866 0.433975
vt 0.571818 0.413852
vt 0.577866 0.393729
vt 0.598501 0.377496
vt 0.598501 0.316015
vt 0.393910 0.603578
vt 0.393910 0.621252
vt 0.393910 0.591515
vt 0.393910 0.461918
vt 0.393910 0.448464
vt 0.393910 0.431317
vt 0.393910 0.414170
vt 0.393910 0.400716
vt 0.393910 0.356287
vt 0.642079 0.566823
vt 0.966370 0.566823
vt 0.957212 0.933727
vt 0.651237 0.933727
vt 0.324001 0.001992
vt 0.324001 0.287449
vt 0.294555 0.287449
vt 0.294555 0.001992
vt 0.001869 0.360162
vt 0.001869 0.046763
vt 0.287326 0.046763
vt 0.287326 0.360162
vt 0.001869 0.001992
vt 0.287326 0.001992
vt 0.263624 0.998008
vt 0.025570 0.998008
vt 0.373166 0.001992
vt 0.473624 0.001992
vt 0.473624 0.287449
vt 0.373166 0.287449
vt 0.503070 0.001992
vt 0.503069 0.287449
vt 0.640182 0.287449
vt 0.610736 0.287449
vt 0.610736 0.001992
vt 0.640181 0.001992
vt 0.510277 0.287449
vt 0.510277 0.001992
vt 0.885154 0.287449
vt 0.855708 0.287449
vt 0.855708 0.001992
vt 0.885153 0.001992
vt 0.755250 0.287449
vt 0.755250 0.001992
vt 0.331119 0.001992
vt 0.366549 0.001992
vt 0.366549 0.287449
vt 0.331119 0.287449
vt 0.647389 0.001992
vt 0.747799 0.001992
vt 0.747799 0.287449
vt 0.647389 0.287449
vt 0.908423 0.019222
vt 0.979664 0.035799
vt 0.979664 0.288103
vt 0.908423 0.304679
vt 0.848967 0.291193
vt 0.859153 0.291193
vt 0.859153 0.529246
vt 0.848967 0.529246
vt 0.842016 0.529246
vt 0.842016 0.291193
vt 0.767331 0.529246
vt 0.767331 0.291193
vt 0.759578 0.529246
vt 0.759578 0.291193
vt 0.749696 0.529246
vt 0.749696 0.291193
vt 0.739815 0.529246
vt 0.739815 0.291193
vt 0.732062 0.529246
vt 0.732062 0.291193
vt 0.706458 0.529246
vt 0.706458 0.291193
vt 0.608391 0.297057
vt 0.690312 0.297057
vt 0.690312 0.529838
vt 0.608391 0.529838
vn 0.000000 0.000000 1.000000
vn 0.000000 0.000000 1.000000
vn 0.000000 0.000000 1.000000
vn 0.000000 0.000000 1.000000
vn 0.000000 0.000000 -1.000000
vn 0.000000 0.000000 -1.000000
vn 0.000000 0.000000 -1.000000
vn 0.000000 0.000000 -1.000000
vn 1.000000 0.000000 0.000000
vn 1.000000 0.000000 0.000000
vn 1.000000 0.000000 0.000000
vn 1.000000 0.000000 0.000000
vn 0.000000 0.000000 -1.000000
vn 0.000000 0.000000 -1.000000
vn 0.000000 0.000000 -1.000000
vn 0.000000 0.000000 -1.000000
vn 0.000000 0.000000 1.000000
vn 0.000000 0.000000 1.000000
vn 0.000000 0.000000 1.000000
vn 0.000000 0.000000 1.000000
vn 0.000000 0.000000 -1.000000
vn 0.000000 0.000000 -1.000000
vn 0.000000 0.000000 -1.000000
vn 0.000000 0.000000 -1.000000
vn 0.000000 0.000000 1.000000
vn 0.000000 0.000000 1.000000
vn 0.000000 0.000000 1.000000
vn 0.000000 0.000000 1.000000
vn 0.119303 -0.002566 -0.992854
vn 0.084189 -0.001811 -0.996448
vn 0.120314 -0.002588 -0.992732
vn 0.120314 -0.002588 -0.992732
vn 0.120314 -0.002588 0.992732
vn 0.084189 -0.001811 0.996448
vn 0.119303 -0.002566 0.992854
vn 0.120314 -0.002588 0.992732
vn 0.000000 0.000000 -1.000000
vn 0.000000 0.000000 -1.000000
vn 0.000000 0.000000 -1.000000
vn 0.000000 0.000000 -1.000000
vn 0.000000 0.000000 1.000000
vn 0.000000 0.000000 1.000000
vn 0.000000 0.000000 1.000000
vn 0.000000 0.000000 1.000000
vn 0.000000 0.000000 -1.000000
vn 0.000000 0.000000 -1.000000
vn 0.000000 0.000000 1.000000
vn 0.000000 0.000000 1.000000
vn 0.000000 0.000000 -1.000000
vn 0.000000 0.000000 -1.000000
vn 0.000000 0.000000 1.000000
vn 0.000000 0.000000 1.000000
vn -0.000000 -1.000000 -0.000000
vn 0.000000 -1.000000 -0.000000
vn 0.502394 -0.864639 -0.000000
vn 0.502394 -0.864639 -0.000000
vn 0.103277 0.994653 0.000000
vn 0.108973 0.994045 0.000000
vn 0.108973 0.994045 0.000000
vn 0.103277 0.994653 0.000000
vn 0.168318 0.985733 0.000000
vn 0.168318 0.985733 0.000000
vn 0.180698 0.983539 0.000000
vn 0.180698 0.983539 0.000000
vn -1.000000 0.000000 0.000000
vn -1.000000 0.000000 0.000000
vn -1.000000 0.000000 0.000000
vn -1.000000 0.000000 0.000000
vn 0.000000 -1.000000 0.000000
vn 0.000000 -1.000000 0.000000
vn 0.000000 -1.000000 0.000000
vn 0.000000 -1.000000 0.000000
vn 0.716231 -0.697863 0.000000
vn 0.509784 -0.860303 -0.000000
vn 0.509784 -0.860303 -0.000000
vn 0.716231 -0.697863 0.000000
vn -0.000000 -1.000000 -0.000000
vn -0.000000 -1.000000 -0.000000
vn -0.509781 -0.860304 -0.000000
vn -0.509781 -0.860304 -0.000000
vn -0.716228 -0.697866 0.000000
vn -0.716228 -0.697866 0.000000
vn 0.000000 -1.000000 0.000000
vn 0.000000 -1.000000 0.000000
vn 0.000000 -1.000000 0.000000
vn 0.000000 -1.000000 0.000000
vn 0.697782 -0.716311 0.000000
vn 0.697782 -0.716311 0.000000
vn -0.513254 -0.858237 -0.000000
vn -0.513254 -0.858237 -0.000000
vn -0.720189 -0.693778 0.000000
vn -0.720189 -0.693778 0.000000
vn -0.005224 -0.999986 0.000000
vn -0.005224 -0.999986 0.000000
vn -0.005224 -0.999986 0.000000
vn -0.005224 -0.999986 0.000000
vn 0.000000 1.000000 0.000000
vn 0.000000 1.000000 0.000000
vn 0.000000 1.000000 0.000000
vn 0.000000 1.000000 0.000000
vn 0.000000 1.000000 0.000000
vn 0.000000 1.000000 0.000000
vn 0.000000 1.000000 0.000000
vn 0.000000 1.000000 0.000000
vn 0.000000 1.000000 0.000000
vn 0.000000 1.000000 0.000000
vn 0.000000 1.000000 0.000000
vn 0.000000 1.000000 0.000000
vn 0.000000 1.000000 0.000000
vn 0.000000 1.000000 0.000000
vn 0.000000 1.000000 0.000000
vn 0.000000 1.000000 0.000000
vn 0.000000 1.000000 0.000000
vn 0.000000 1.000000 0.000000
vn 0.000000 0.000000 1.000000
vn 0.000000 0.000000 1.000000
vn 0.000000 0.000000 1.000000
vn 0.000000 0.000000 1.000000
vn 0.000000 0.000000 1.000000
vn 0.000000 0.000000 1.000000
vn 0.000000 0.000000 1.000000
vn 0.000000 0.000000 1.000000
vn 0.000000 0.000000 1.000000
vn 0.000000 0.000000 1.000000
vn 0.000000 0.000000 1.000000
vn 0.000000 0.000000 1.000000
vn 0.000000 0.000000 1.000000
vn 0.000000 0.000000 1.000000
vn 0.000000 0.000000 1.000000
vn 0.000000 0.000000 1.000000
vn 0.000000 0.000000 1.000000
vn 0.000000 0.000000 1.000000
vn 0.000000 0.000000 1.000000
vn 0.000000 0.000000 1.000000
vn 0.119637 0.000000 0.992818
vn 0.119637 0.000000 0.992818
vn 0.119637 0.000000 0.992818
vn 0.119637 0.000000 0.992818
vn 1.000000 0.000000 0.000000
vn 1.000000 0.000000 0.000000
vn 1.000000 0.000000 0.000000
vn 1.000000 0.000000 0.000000
vn 0.119637 0.000000 -0.992818
vn 0.119637 0.000000 -0.992818
vn 0.119637 0.000000 -0.992818
vn 0.119637 0.000000 -0.992818
vn 0.000000 0.000000 -1.000000
vn 0.000000 0.000000 -1.000000
vn 0.000000 0.000000 -1.000000
vn 0.000000 0.000000 -1.000000
vn 0.000000 0.000000 -1.000000
vn 0.000000 0.000000 -1.000000
vn 0.000000 0.000000 -1.000000
vn 0.000000 0.000000 -1.000000
vn 0.000000 0.000000 -1.000000
vn 0.000000 0.000000 -1.000000
vn 0.000000 0.000000 -1.000000
vn 0.000000 0.000000 -1.000000
vn 0.000000 0.000000 -1.000000
vn 0.000000 0.000000 -1.000000
vn 0.000000 0.000000 -1.000000
vn 0.000000 0.000000 -1.000000
vn 0.000000 0.000000 -1.000000
vn 0.000000 0.000000 -1.000000
vn 0.000000 0.000000 -1.000000
vn 0.000000 0.000000 -1.000000
vn 0.000000 0.000000 -1.000000
vn 0.000000 0.000000 -1.000000
vn 0.000000 0.000000 -1.000000
vn 0.000000 0.000000 -1.000000
vn 0.000000 0.000000 -1.000000
vn 0.000000 0.000000 -1.000000
vn 0.000000 0.000000 -1.000000
vn 0.000000 0.000000 -1.000000
vn 0.000000 0.000000 -1.000000
vn 0.000000 0.000000 -1.000000
vn 0.000000 0.000000 -1.000000
vn 0.000000 0.000000 -1.000000
vn 0.000000 0.000000 -1.000000
vn 0.000000 0.000000 -1.000000
vn 0.000000 0.000000 -1.000000
vn 0.000000 0.000000 -1.000000
vn 0.000000 0.000000 -1.000000
vn 0.000000 0.000000 -1.000000
vn 0.000000 0.000000 -1.000000
vn 0.000000 0.000000 -1.000000
vn -1.000000 0.000000 0.000000
vn -1.000000 0.000000 0.000000
vn -1.000000 0.000000 0.000000
vn -1.000000 0.000000 0.000000
vn 0.000000 0.000000 1.000000
vn 0.000000 0.000000 1.000000
vn 0.000000 0.000000 1.000000
vn 0.000000 0.000000 1.000000
vn 0.000000 0.000000 1.000000
vn 0.000000 0.000000 1.000000
vn 0.000000 0.000000 1.000000
vn 0.000000 0.000000 1.000000
vn 0.000000 0.000000 1.000000
vn 0.000000 0.000000 1.000000
vn 0.000000 0.000000 1.000000
vn 0.000000 0.000000 1.000000
vn 0.000000 0.000000 1.000000
vn 0.000000 0.000000 1.000000
vn 0.000000 0.000000 1.000000
vn 0.000000 0.000000 1.000000
vn 0.000000 0.000000 1.000000
vn 0.000000 0.000000 1.000000
vn 0.000000 0.000000 1.000000
vn 0.000000 0.000000 1.000000
vn 0.000000 0.197403 0.980322
vn 0.000000 0.197403 0.980322
vn 0.000000 0.197403 0.980322
vn 0.000000 0.197403 0.980322
vn 0.934561 0.355802 0.000000
vn 0.934561 0.355802 0.000000
vn 0.934561 0.355802 0.000000
vn 0.934561 0.355802 0.000000
vn 0.000000 0.197400 -0.980323
vn 0.000000 0.197400 -0.980323
vn 0.000000 0.197400 -0.980323
vn 0.000000 0.197400 -0.980323
vn 0.000000 0.197400 -0.980323
vn 0.000000 0.197400 -0.980323
vn 0.000000 0.197400 -0.980323
vn 0.000000 0.197400 -0.980323
vn 0.000000 0.197403 0.980322
vn 0.000000 0.197403 0.980322
vn 0.000000 0.197403 0.980322
vn 0.000000 0.197403 0.980322
vn 0.000000 0.197400 -0.980323
vn 0.000000 0.197400 -0.980323
vn 0.000000 0.197400 -0.980323
vn 0.000000 0.197400 -0.980323
vn 0.000000 0.197403 0.980322
vn 0.000000 0.197403 0.980322
vn 0.000000 0.197403 0.980322
vn 0.000000 0.197403 0.980322
vn 0.000000 0.197400 -0.980323
vn 0.000000 0.197400 -0.980323
vn 0.000000 0.197400 -0.980323
vn 0.000000 0.197400 -0.980323
vn 0.000000 0.197403 0.980322
vn 0.000000 0.197403 0.980322
vn 0.000000 0.197403 0.980322
vn 0.000000 0.197403 0.980322
vn 0.000000 0.197400 -0.980323
vn 0.000000 0.197400 -0.980323
vn 0.000000 0.197400 -0.980323
vn 0.000000 0.197400 -0.980323
vn 0.000000 0.197403 0.980322
vn 0.000000 0.197403 0.980322
vn 0.000000 0.197403 0.980322
vn 0.000000 0.197403 0.980322
vn 0.000000 0.197400 -0.980323
vn 0.000000 0.197400 -0.980323
vn 0.000000 0.197400 -0.980323
vn 0.000000 0.197400 -0.980323
vn 0.000000 0.197403 0.980322
vn 0.000000 0.197403 0.980322
vn 0.000000 0.197403 0.980322
vn 0.000000 0.197403 0.980322
vn 0.000000 0.197400 -0.980323
vn 0.000000 0.197400 -0.980323
vn 0.000000 0.197400 -0.980323
vn 0.000000 0.197400 -0.980323
vn 0.000000 0.197403 0.980322
vn 0.000000 0.197403 0.980322
vn 0.000000 0.197403 0.980322
vn 0.000000 0.197403 0.980322
vn 0.000000 0.197400 -0.980323
vn 0.000000 0.197400 -0.980323
vn 0.000000 0.197400 -0.980323
vn 0.000000 0.197400 -0.980323
vn -0.934561 0.355803 0.000000
vn -0.934561 0.355803 0.000000
vn -0.934561 0.355803 0.000000
vn -0.934561 0.355803 0.000000
vn 0.000000 0.197403 0.980322
vn 0.000000 0.197403 0.980322
vn 0.000000 0.197403 0.980322
vn 0.000000 0.197403 0.980322
s 1
g pCube16 group3
usemtl lambert20SG
f 25/1/1 3/2/2 61/11/3 62/12/4
s 2
f 5/56/5 26/57/6 59/58/7 60/59/8
s off
f 6/3/9 4/4/10 72/5/11 49/6/12
s 2
f 10/60/13 46/61/14 51/62/15 52/63/16
s 1
f 45/13/17 9/14/18 69/15/19 70/16/20
s 2
f 14/64/21 42/65/22 53/66/23 54/67/24
s 1
f 41/19/25 13/20/26 67/21/27 68/22/28
s 2
f 50/68/29 18/69/30 6/70/31 49/71/32
s 1
f 4/23/33 17/24/34 71/25/35 72/26/36
s 2
f 22/72/37 38/73/38 56/74/39 57/75/40
s 1
f 37/27/41 21/28/42 64/29/43 65/30/44
s 2
f 26/57/6 34/76/45 58/77/46 59/58/7
s 1
f 33/31/47 25/1/1 62/12/4 63/32/48
s 2
f 30/78/49 14/64/21 54/67/24 55/79/50
s 1
f 13/20/26 29/33/51 66/34/52 67/21/27
s 2
f 34/76/45 22/72/37 57/75/40 58/77/46
s 1
f 21/28/42 33/31/47 63/32/48 64/29/43
s 2
f 38/73/38 30/78/49 55/79/50 56/74/39
s 1
f 29/33/51 37/27/41 65/30/44 66/34/52
s 2
f 10/60/13 52/63/16 53/66/23 42/65/22
s 8
f 11/105/53 12/106/54 44/107/55 43/108/56
s 1
f 69/15/19 9/14/18 41/19/25 68/22/28
s 2
f 46/61/14 18/69/30 50/68/29 51/62/15
s 1
f 17/24/34 45/13/17 70/16/20 71/25/35
s 9
f 6/3/57 18/7/58 17/8/59 4/4/60
f 18/7/58 46/9/61 45/10/62 17/8/59
f 46/9/61 10/17/63 9/18/64 45/10/62
s off
f 5/109/65 60/110/66 61/111/67 3/112/68
f 7/135/69 27/136/70 28/137/71 1/138/72
s 10
f 27/117/73 35/118/74 36/119/75 28/120/76
f 35/118/74 23/121/77 24/122/78 36/119/75
f 23/123/77 39/124/79 40/125/80 24/126/78
f 39/124/79 31/127/81 32/128/82 40/125/80
s off
f 31/139/83 15/140/84 16/141/85 32/142/86
s 8
f 15/165/87 43/166/56 44/167/55 16/168/88
f 11/129/53 47/130/89 48/131/90 12/132/54
f 47/130/89 19/133/91 20/134/92 48/131/90
s off
f 19/143/93 8/144/94 2/145/95 20/146/96
s 11
f 73/147/97 74/148/98 75/149/99 76/150/100
f 76/150/100 77/151/101 78/152/102 73/147/97
f 77/151/101 79/153/103 80/154/104 78/152/102
f 79/153/103 81/155/105 82/156/106 80/154/104
f 81/155/105 83/157/107 84/158/108 82/156/106
f 83/157/107 85/159/109 86/160/110 84/158/108
f 85/159/109 87/161/111 88/162/112 86/160/110
f 87/161/111 89/163/113 90/164/114 88/162/112
s off
f 32/35/115 16/36/116 67/21/117 66/34/118
f 16/36/119 44/37/120 68/22/121 67/21/122
f 69/15/123 68/22/124 44/37/125 12/38/126
f 12/38/127 48/39/128 70/16/129 69/15/130
f 48/39/131 20/40/132 71/25/133 70/16/134
f 20/40/135 2/41/136 72/26/137 71/25/138
f 49/6/139 72/5/140 2/101/141 8/102/142
f 8/80/143 19/81/144 50/68/145 49/71/146
f 19/81/147 47/82/148 51/62/149 50/68/150
f 47/82/151 11/83/152 52/63/153 51/62/154
f 53/66/155 52/63/156 11/83/157 43/84/158
f 43/84/159 15/85/160 54/67/161 53/66/162
f 15/85/163 31/86/164 55/79/165 54/67/166
f 31/86/167 39/87/168 56/74/169 55/79/170
f 39/87/171 23/88/172 57/75/173 56/74/174
f 23/88/175 35/89/176 58/77/177 57/75/178
f 35/89/179 27/90/180 59/58/181 58/77/182
f 27/90/183 7/91/184 60/59/185 59/58/186
f 61/111/187 60/110/188 7/113/189 1/114/190
f 1/42/191 28/43/192 62/12/193 61/11/194
f 28/43/195 36/44/196 63/32/197 62/12/198
f 36/44/199 24/45/200 64/29/201 63/32/202
f 24/45/203 40/46/204 65/30/205 64/29/206
f 40/46/207 32/35/208 66/34/209 65/30/210
f 41/19/211 9/14/212 74/47/213 73/48/214
f 9/18/215 10/17/216 75/103/217 74/104/218
f 10/60/219 42/65/220 76/92/221 75/93/222
f 42/65/223 14/64/224 77/94/225 76/92/226
f 13/20/227 41/19/228 73/48/229 78/49/230
f 14/64/231 30/78/232 79/95/233 77/94/234
f 29/33/235 13/20/236 78/49/237 80/50/238
f 30/78/239 38/73/240 81/96/241 79/95/242
f 37/27/243 29/33/244 80/50/245 82/51/246
f 38/73/247 22/72/248 83/97/249 81/96/250
f 21/28/251 37/27/252 82/51/253 84/52/254
f 22/72/255 34/76/256 85/98/257 83/97/258
f 33/31/259 21/28/260 84/52/261 86/53/262
f 34/76/263 26/57/264 87/99/265 85/98/266
f 25/1/267 33/31/268 86/53/269 88/54/270
f 26/57/271 5/56/272 89/100/273 87/99/274
f 5/109/275 3/112/276 90/115/277 89/116/278
f 3/2/279 25/1/280 88/54/281 90/55/282
g default
v -14.073041 0.893830 19.250407
v -14.282227 1.103017 19.250407
v -14.567982 1.179584 19.250407
v -14.853736 1.103017 19.250407
v -15.062923 0.893830 19.250407
v -15.139491 0.608076 19.250407
v -15.062923 0.322321 19.250407
v -14.853736 0.113134 19.250407
v -14.567982 0.036567 19.250407
v -14.282227 0.113134 19.250407
v -14.073041 0.322321 19.250407
v -13.996473 0.608076 19.250407
v -14.567982 0.608076 19.250407
v -14.282227 1.103017 19.601390
v -14.073041 0.893830 19.601390
v -13.996473 0.608076 19.601390
v -14.073041 0.322321 19.601390
v -14.282227 0.113134 19.601390
v -14.567982 0.036567 19.601390
v -14.853736 0.113134 19.601390
v -15.062923 0.322321 19.601390
v -15.139491 0.608076 19.601390
v -15.062923 0.893830 19.601390
v -14.853736 1.103017 19.601390
v -14.567982 1.179584 19.601390
v -14.567982 0.608076 19.601390
vt 0.263136 0.840741
vt 0.263136 0.716709
vt 0.347548 0.716709
vt 0.347548 0.840741
vt 0.263136 0.592677
vt 0.347548 0.592677
vt 0.263136 0.931539
vt 0.347548 0.931539
vt 0.263136 0.501879
vt 0.347548 0.501879
vt 0.437736 0.592677
vt 0.437736 0.716709
vt 0.353324 0.716709
vt 0.353324 0.592677
vt 0.437736 0.840741
vt 0.353324 0.840741
vt 0.437736 0.501879
vt 0.353324 0.501879
vt 0.437736 0.931539
vt 0.353324 0.931539
vt 0.257359 0.501880
vt 0.257359 0.625912
vt 0.172947 0.625912
vt 0.172947 0.501880
vt 0.257359 0.749944
vt 0.172947 0.749944
vt 0.082759 0.749944
vt 0.082759 0.625912
vt 0.167170 0.625912
vt 0.167170 0.749944
vt 0.082759 0.501880
vt 0.167170 0.501880
vt 0.035110 0.126024
vt 0.125908 0.035226
vt 0.249940 0.250056
vt 0.249940 0.001992
vt 0.001876 0.250056
vt 0.373972 0.035226
vt 0.035110 0.374089
vt 0.464770 0.126024
vt 0.125908 0.464887
vt 0.498004 0.250056
vt 0.249940 0.498121
vt 0.464770 0.374089
vt 0.373972 0.464887
vt 0.476747 0.625911
vt 0.691577 0.749944
vt 0.443513 0.749944
vt 0.567545 0.535113
vt 0.476747 0.873976
vt 0.691577 0.501879
vt 0.567545 0.964774
vt 0.815609 0.535113
vt 0.691577 0.998008
vt 0.906407 0.625911
vt 0.815609 0.964774
vt 0.939641 0.749944
vt 0.906407 0.873976
vn 0.866025 0.500001 0.000000
vn 0.499998 0.866026 0.000000
vn 0.499998 0.866026 0.000000
vn 0.866025 0.500001 0.000000
vn 0.000000 1.000000 0.000000
vn 0.000000 1.000000 0.000000
vn -0.499998 0.866026 0.000000
vn -0.499998 0.866026 0.000000
vn -0.866025 0.500001 0.000000
vn -0.866025 0.500001 0.000000
vn -1.000000 0.000000 0.000000
vn -1.000000 0.000000 0.000000
vn -0.866025 -0.500001 0.000000
vn -0.866025 -0.500001 0.000000
vn -0.499998 -0.866026 0.000000
vn -0.499998 -0.866026 0.000000
vn 0.000000 -1.000000 0.000000
vn 0.000000 -1.000000 0.000000
vn 0.499998 -0.866026 0.000000
vn 0.499998 -0.866026 0.000000
vn 0.866025 -0.500001 0.000000
vn 0.866025 -0.500001 0.000000
vn 1.000000 0.000000 0.000000
vn 1.000000 0.000000 0.000000
vn 0.000000 0.000000 -1.000000
vn 0.000000 0.000000 -1.000000
vn -0.000002 0.000000 -1.000000
vn 0.000000 0.000000 -1.000000
vn -0.000007 0.000000 -1.000000
vn -0.000007 0.000000 -1.000000
vn 0.000000 0.000000 -1.000000
vn -0.000013 0.000000 -1.000000
vn -0.000000 0.000000 -1.000000
vn 0.000000 0.000000 -1.000000
vn -0.000007 0.000000 -1.000000
vn 0.000007 0.000000 -1.000000
vn 0.000000 0.000000 -1.000000
vn 0.000000 0.000000 1.000000
vn 0.000000 0.000000 1.000000
vn 0.000000 0.000000 1.000000
vn 0.000007 0.000000 1.000000
vn 0.000007 0.000000 1.000000
vn -0.000007 0.000000 1.000000
vn -0.000007 0.000000 1.000000
vn 0.000000 0.000000 1.000000
vn 0.000007 0.000000 1.000000
vn 0.000007 0.000000 1.000000
vn -0.000007 0.000000 1.000000
vn -0.000007 0.000000 1.000000
vn 0.000000 0.000000 1.000000
s 1
g group3 pCylinder14
usemtl lambert23SG
f 91/183/283 92/187/284 104/188/285 105/184/286
f 92/189/284 93/190/287 115/191/288 104/192/285
f 93/190/287 94/193/289 114/194/290 115/191/288
f 94/175/289 95/169/291 113/172/292 114/176/290
f 95/169/291 96/170/293 112/171/294 113/172/292
f 96/170/293 97/173/295 111/174/296 112/171/294
f 97/173/295 98/177/297 110/178/298 111/174/296
f 98/195/297 99/196/299 109/197/300 110/198/298
f 99/196/299 100/199/301 108/200/302 109/197/300
f 100/185/301 101/179/303 107/182/304 108/186/302
f 101/179/303 102/180/305 106/181/306 107/182/304
f 102/180/305 91/183/283 105/184/286 106/181/306
s 2
f 92/201/307 91/202/308 103/203/309
f 93/205/310 92/201/307 103/203/309
f 94/207/311 93/205/310 103/203/309
f 95/209/312 94/207/311 103/203/309
f 96/211/313 95/209/312 103/203/309
f 97/213/314 96/211/313 103/203/309
f 98/212/315 97/213/314 103/203/309
f 99/210/316 98/212/315 103/203/309
f 100/208/317 99/210/316 103/203/309
f 101/206/318 100/208/317 103/203/309
f 102/204/319 101/206/318 103/203/309
f 91/202/308 102/204/319 103/203/309
s 3
f 108/214/320 116/215/321 109/216/322
f 113/224/323 116/215/321 114/226/324
f 106/219/325 116/215/321 107/217/326
f 114/226/324 116/215/321 115/225/327
f 111/220/328 116/215/321 112/222/329
f 107/217/326 116/215/321 108/214/320
f 105/221/330 104/223/331 116/215/321
f 112/222/329 116/215/321 113/224/323
f 109/216/322 116/215/321 110/218/332
f 105/221/330 116/215/321 106/219/325
f 116/215/321 104/223/331 115/225/327
f 110/218/332 116/215/321 111/220/328
g default
v -14.073041 0.893830 15.708457
v -14.282227 1.103017 15.708457
v -14.567982 1.179584 15.708457
v -14.853736 1.103017 15.708457
v -15.062923 0.893830 15.708457
v -15.139491 0.608076 15.708457
v -15.062923 0.322321 15.708457
v -14.853736 0.113134 15.708457
v -14.567982 0.036567 15.708457
v -14.282227 0.113134 15.708457
v -14.073041 0.322321 15.708457
v -13.996473 0.608076 15.708457
v -14.567982 0.608076 15.708457
v -14.282227 1.103017 16.059440
v -14.073041 0.893830 16.059440
v -13.996473 0.608076 16.059440
v -14.073041 0.322321 16.059440
v -14.282227 0.113134 16.059440
v -14.567982 0.036567 16.059440
v -14.853736 0.113134 16.059440
v -15.062923 0.322321 16.059440
v -15.139491 0.608076 16.059440
v -15.062923 0.893830 16.059440
v -14.853736 1.103017 16.059440
v -14.567982 1.179584 16.059440
v -14.567982 0.608076 16.059440
vt 0.263136 0.840741
vt 0.263136 0.716709
vt 0.347548 0.716709
vt 0.347548 0.840741
vt 0.263136 0.592677
vt 0.347548 0.592677
vt 0.263136 0.931539
vt 0.347548 0.931539
vt 0.263136 0.501879
vt 0.347548 0.501879
vt 0.437736 0.592677
vt 0.437736 0.716709
vt 0.353324 0.716709
vt 0.353324 0.592677
vt 0.437736 0.840741
vt 0.353324 0.840741
vt 0.437736 0.501879
vt 0.353324 0.501879
vt 0.437736 0.931539
vt 0.353324 0.931539
vt 0.257359 0.501880
vt 0.257359 0.625912
vt 0.172947 0.625912
vt 0.172947 0.501880
vt 0.257359 0.749944
vt 0.172947 0.749944
vt 0.082759 0.749944
vt 0.082759 0.625912
vt 0.167170 0.625912
vt 0.167170 0.749944
vt 0.082759 0.501880
vt 0.167170 0.501880
vt 0.035110 0.126024
vt 0.125908 0.035226
vt 0.249940 0.250056
vt 0.249940 0.001992
vt 0.001876 0.250056
vt 0.373972 0.035226
vt 0.035110 0.374089
vt 0.464770 0.126024
vt 0.125908 0.464887
vt 0.498004 0.250056
vt 0.249940 0.498121
vt 0.464770 0.374089
vt 0.373972 0.464887
vt 0.476747 0.625911
vt 0.691577 0.749944
vt 0.443513 0.749944
vt 0.567545 0.535113
vt 0.476747 0.873976
vt 0.691577 0.501879
vt 0.567545 0.964774
vt 0.815609 0.535113
vt 0.691577 0.998008
vt 0.906407 0.625911
vt 0.815609 0.964774
vt 0.939641 0.749944
vt 0.906407 0.873976
vn 0.866025 0.500001 0.000000
vn 0.499998 0.866026 0.000000
vn 0.499998 0.866026 0.000000
vn 0.866025 0.500001 0.000000
vn 0.000000 1.000000 0.000000
vn 0.000000 1.000000 0.000000
vn -0.499998 0.866026 0.000000
vn -0.499998 0.866026 0.000000
vn -0.866025 0.500001 0.000000
vn -0.866025 0.500001 0.000000
vn -1.000000 0.000000 0.000000
vn -1.000000 0.000000 0.000000
vn -0.866025 -0.500001 0.000000
vn -0.866025 -0.500001 0.000000
vn -0.499998 -0.866026 0.000000
vn -0.499998 -0.866026 0.000000
vn 0.000000 -1.000000 0.000000
vn 0.000000 -1.000000 0.000000
vn 0.499998 -0.866026 0.000000
vn 0.499998 -0.866026 0.000000
vn 0.866025 -0.500001 0.000000
vn 0.866025 -0.500001 0.000000
vn 1.000000 0.000000 0.000000
vn 1.000000 0.000000 0.000000
vn 0.000000 0.000000 -1.000000
vn 0.000000 0.000000 -1.000000
vn -0.000002 0.000000 -1.000000
vn 0.000000 0.000000 -1.000000
vn -0.000007 0.000000 -1.000000
vn -0.000007 0.000000 -1.000000
vn 0.000000 0.000000 -1.000000
vn -0.000013 0.000000 -1.000000
vn -0.000000 0.000000 -1.000000
vn 0.000000 0.000000 -1.000000
vn -0.000007 0.000000 -1.000000
vn 0.000007 0.000000 -1.000000
vn 0.000000 0.000000 -1.000000
vn 0.000000 0.000000 1.000000
vn 0.000000 0.000000 1.000000
vn 0.000000 0.000000 1.000000
vn 0.000007 0.000000 1.000000
vn 0.000007 0.000000 1.000000
vn -0.000007 0.000000 1.000000
vn -0.000007 0.000000 1.000000
vn 0.000000 0.000000 1.000000
vn 0.000007 0.000000 1.000000
vn 0.000007 0.000000 1.000000
vn -0.000007 0.000000 1.000000
vn -0.000007 0.000000 1.000000
vn 0.000000 0.000000 1.000000
s 1
g group3 pCylinder15
usemtl lambert23SG
f 117/241/333 118/245/334 130/246/335 131/242/336
f 118/247/334 119/248/337 141/249/338 130/250/335
f 119/248/337 120/251/339 140/252/340 141/249/338
f 120/233/339 121/227/341 139/230/342 140/234/340
f 121/227/341 122/228/343 138/229/344 139/230/342
f 122/228/343 123/231/345 137/232/346 138/229/344
f 123/231/345 124/235/347 136/236/348 137/232/346
f 124/253/347 125/254/349 135/255/350 136/256/348
f 125/254/349 126/257/351 134/258/352 135/255/350
f 126/243/351 127/237/353 133/240/354 134/244/352
f 127/237/353 128/238/355 132/239/356 133/240/354
f 128/238/355 117/241/333 131/242/336 132/239/356
s 2
f 118/259/357 117/260/358 129/261/359
f 119/263/360 118/259/357 129/261/359
f 120/265/361 119/263/360 129/261/359
f 121/267/362 120/265/361 129/261/359
f 122/269/363 121/267/362 129/261/359
f 123/271/364 122/269/363 129/261/359
f 124/270/365 123/271/364 129/261/359
f 125/268/366 124/270/365 129/261/359
f 126/266/367 125/268/366 129/261/359
f 127/264/368 126/266/367 129/261/359
f 128/262/369 127/264/368 129/261/359
f 117/260/358 128/262/369 129/261/359
s 3
f 134/272/370 142/273/371 135/274/372
f 139/282/373 142/273/371 140/284/374
f 132/277/375 142/273/371 133/275/376
f 140/284/374 142/273/371 141/283/377
f 137/278/378 142/273/371 138/280/379
f 133/275/376 142/273/371 134/272/370
f 131/279/380 130/281/381 142/273/371
f 138/280/379 142/273/371 139/282/373
f 135/274/372 142/273/371 136/276/382
f 131/279/380 142/273/371 132/277/375
f 142/273/371 130/281/381 141/283/377
f 136/276/382 142/273/371 137/278/378
g default
v -10.512737 0.893830 19.250407
v -10.721924 1.103017 19.250407
v -11.007678 1.179584 19.250407
v -11.293433 1.103017 19.250407
v -11.502619 0.893830 19.250407
v -11.579187 0.608076 19.250407
v -11.502619 0.322321 19.250407
v -11.293433 0.113134 19.250407
v -11.007678 0.036567 19.250407
v -10.721924 0.113134 19.250407
v -10.512737 0.322321 19.250407
v -10.436169 0.608076 19.250407
v -11.007678 0.608076 19.250407
v -10.721924 1.103017 19.601390
v -10.512737 0.893830 19.601390
v -10.436169 0.608076 19.601390
v -10.512737 0.322321 19.601390
v -10.721924 0.113134 19.601390
v -11.007678 0.036567 19.601390
v -11.293433 0.113134 19.601390
v -11.502619 0.322321 19.601390
v -11.579187 0.608076 19.601390
v -11.502619 0.893830 19.601390
v -11.293433 1.103017 19.601390
v -11.007678 1.179584 19.601390
v -11.007678 0.608076 19.601390
vt 0.263136 0.840741
vt 0.263136 0.716709
vt 0.347548 0.716709
vt 0.347548 0.840741
vt 0.263136 0.592677
vt 0.347548 0.592677
vt 0.263136 0.931539
vt 0.347548 0.931539
vt 0.263136 0.501879
vt 0.347548 0.501879
vt 0.437736 0.592677
vt 0.437736 0.716709
vt 0.353324 0.716709
vt 0.353324 0.592677
vt 0.437736 0.840741
vt 0.353324 0.840741
vt 0.437736 0.501879
vt 0.353324 0.501879
vt 0.437736 0.931539
vt 0.353324 0.931539
vt 0.257359 0.501880
vt 0.257359 0.625912
vt 0.172947 0.625912
vt 0.172947 0.501880
vt 0.257359 0.749944
vt 0.172947 0.749944
vt 0.082759 0.749944
vt 0.082759 0.625912
vt 0.167170 0.625912
vt 0.167170 0.749944
vt 0.082759 0.501880
vt 0.167170 0.501880
vt 0.035110 0.126024
vt 0.125908 0.035226
vt 0.249940 0.250056
vt 0.249940 0.001992
vt 0.001876 0.250056
vt 0.373972 0.035226
vt 0.035110 0.374089
vt 0.464770 0.126024
vt 0.125908 0.464887
vt 0.498004 0.250056
vt 0.249940 0.498121
vt 0.464770 0.374089
vt 0.373972 0.464887
vt 0.476747 0.625911
vt 0.691577 0.749944
vt 0.443513 0.749944
vt 0.567545 0.535113
vt 0.476747 0.873976
vt 0.691577 0.501879
vt 0.567545 0.964774
vt 0.815609 0.535113
vt 0.691577 0.998008
vt 0.906407 0.625911
vt 0.815609 0.964774
vt 0.939641 0.749944
vt 0.906407 0.873976
vn 0.866025 0.500001 0.000000
vn 0.499998 0.866026 0.000000
vn 0.499998 0.866026 0.000000
vn 0.866025 0.500001 0.000000
vn 0.000000 1.000000 0.000000
vn 0.000000 1.000000 0.000000
vn -0.499998 0.866026 0.000000
vn -0.499998 0.866026 0.000000
vn -0.866025 0.500001 0.000000
vn -0.866025 0.500001 0.000000
vn -1.000000 0.000000 0.000000
vn -1.000000 0.000000 0.000000
vn -0.866025 -0.500001 0.000000
vn -0.866025 -0.500001 0.000000
vn -0.499998 -0.866026 0.000000
vn -0.499998 -0.866026 0.000000
vn 0.000000 -1.000000 0.000000
vn 0.000000 -1.000000 0.000000
vn 0.499998 -0.866026 0.000000
vn 0.499998 -0.866026 0.000000
vn 0.866025 -0.500001 0.000000
vn 0.866025 -0.500001 0.000000
vn 1.000000 0.000000 0.000000
vn 1.000000 0.000000 0.000000
vn 0.000000 0.000000 -1.000000
vn 0.000000 0.000000 -1.000000
vn -0.000002 0.000000 -1.000000
vn 0.000000 0.000000 -1.000000
vn -0.000007 0.000000 -1.000000
vn -0.000007 0.000000 -1.000000
vn 0.000000 0.000000 -1.000000
vn -0.000013 0.000000 -1.000000
vn -0.000000 0.000000 -1.000000
vn 0.000000 0.000000 -1.000000
vn -0.000007 0.000000 -1.000000
vn 0.000007 0.000000 -1.000000
vn 0.000000 0.000000 -1.000000
vn 0.000000 0.000000 1.000000
vn 0.000000 0.000000 1.000000
vn 0.000000 0.000000 1.000000
vn 0.000007 0.000000 1.000000
vn 0.000007 0.000000 1.000000
vn -0.000007 0.000000 1.000000
vn -0.000007 0.000000 1.000000
vn 0.000000 0.000000 1.000000
vn 0.000007 0.000000 1.000000
vn 0.000007 0.000000 1.000000
vn -0.000007 0.000000 1.000000
vn -0.000007 0.000000 1.000000
vn 0.000000 0.000000 1.000000
s 1
g group3 pCylinder13
usemtl lambert23SG
f 143/299/383 144/303/384 156/304/385 157/300/386
f 144/305/384 145/306/387 167/307/388 156/308/385
f 145/306/387 146/309/389 166/310/390 167/307/388
f 146/291/389 147/285/391 165/288/392 166/292/390
f 147/285/391 148/286/393 164/287/394 165/288/392
f 148/286/393 149/289/395 163/290/396 164/287/394
f 149/289/395 150/293/397 162/294/398 163/290/396
f 150/311/397 151/312/399 161/313/400 162/314/398
f 151/312/399 152/315/401 160/316/402 161/313/400
f 152/301/401 153/295/403 159/298/404 160/302/402
f 153/295/403 154/296/405 158/297/406 159/298/404
f 154/296/405 143/299/383 157/300/386 158/297/406
s 2
f 144/317/407 143/318/408 155/319/409
f 145/321/410 144/317/407 155/319/409
f 146/323/411 145/321/410 155/319/409
f 147/325/412 146/323/411 155/319/409
f 148/327/413 147/325/412 155/319/409
f 149/329/414 148/327/413 155/319/409
f 150/328/415 149/329/414 155/319/409
f 151/326/416 150/328/415 155/319/409
f 152/324/417 151/326/416 155/319/409
f 153/322/418 152/324/417 155/319/409
f 154/320/419 153/322/418 155/319/409
f 143/318/408 154/320/419 155/319/409
s 3
f 160/330/420 168/331/421 161/332/422
f 165/340/423 168/331/421 166/342/424
f 158/335/425 168/331/421 159/333/426
f 166/342/424 168/331/421 167/341/427
f 163/336/428 168/331/421 164/338/429
f 159/333/426 168/331/421 160/330/420
f 157/337/430 156/339/431 168/331/421
f 164/338/429 168/331/421 165/340/423
f 161/332/422 168/331/421 162/334/432
f 157/337/430 168/331/421 158/335/425
f 168/331/421 156/339/431 167/341/427
f 162/334/432 168/331/421 163/336/428
g default
v -10.512737 0.893830 15.708457
v -10.721924 1.103017 15.708457
v -11.007678 1.179584 15.708457
v -11.293433 1.103017 15.708457
v -11.502619 0.893830 15.708457
v -11.579187 0.608076 15.708457
v -11.502619 0.322321 15.708457
v -11.293433 0.113134 15.708457
v -11.007678 0.036567 15.708457
v -10.721924 0.113134 15.708457
v -10.512737 0.322321 15.708457
v -10.436169 0.608076 15.708457
v -11.007678 0.608076 15.708457
v -10.721924 1.103017 16.059440
v -10.512737 0.893830 16.059440
v -10.436169 0.608076 16.059440
v -10.512737 0.322321 16.059440
v -10.721924 0.113134 16.059440
v -11.007678 0.036567 16.059440
v -11.293433 0.113134 16.059440
v -11.502619 0.322321 16.059440
v -11.579187 0.608076 16.059440
v -11.502619 0.893830 16.059440
v -11.293433 1.103017 16.059440
v -11.007678 1.179584 16.059440
v -11.007678 0.608076 16.059440
vt 0.263136 0.840741
vt 0.263136 0.716709
vt 0.347548 0.716709
vt 0.347548 0.840741
vt 0.263136 0.592677
vt 0.347548 0.592677
vt 0.263136 0.931539
vt 0.347548 0.931539
vt 0.263136 0.501879
vt 0.347548 0.501879
vt 0.437736 0.592677
vt 0.437736 0.716709
vt 0.353324 0.716709
vt 0.353324 0.592677
vt 0.437736 0.840741
vt 0.353324 0.840741
vt 0.437736 0.501879
vt 0.353324 0.501879
vt 0.437736 0.931539
vt 0.353324 0.931539
vt 0.257359 0.501880
vt 0.257359 0.625912
vt 0.172947 0.625912
vt 0.172947 0.501880
vt 0.257359 0.749944
vt 0.172947 0.749944
vt 0.082759 0.749944
vt 0.082759 0.625912
vt 0.167170 0.625912
vt 0.167170 0.749944
vt 0.082759 0.501880
vt 0.167170 0.501880
vt 0.035110 0.126024
vt 0.125908 0.035226
vt 0.249940 0.250056
vt 0.249940 0.001992
vt 0.001876 0.250056
vt 0.373972 0.035226
vt 0.035110 0.374089
vt 0.464770 0.126024
vt 0.125908 0.464887
vt 0.498004 0.250056
vt 0.249940 0.498121
vt 0.464770 0.374089
vt 0.373972 0.464887
vt 0.476747 0.625911
vt 0.691577 0.749944
vt 0.443513 0.749944
vt 0.567545 0.535113
vt 0.476747 0.873976
vt 0.691577 0.501879
vt 0.567545 0.964774
vt 0.815609 0.535113
vt 0.691577 0.998008
vt 0.906407 0.625911
vt 0.815609 0.964774
vt 0.939641 0.749944
vt 0.906407 0.873976
vn 0.866025 0.500001 0.000000
vn 0.499998 0.866026 0.000000
vn 0.499998 0.866026 0.000000
vn 0.866025 0.500001 0.000000
vn 0.000000 1.000000 0.000000
vn 0.000000 1.000000 0.000000
vn -0.499998 0.866026 0.000000
vn -0.499998 0.866026 0.000000
vn -0.866025 0.500001 0.000000
vn -0.866025 0.500001 0.000000
vn -1.000000 0.000000 0.000000
vn -1.000000 0.000000 0.000000
vn -0.866025 -0.500001 0.000000
vn -0.866025 -0.500001 0.000000
vn -0.499998 -0.866026 0.000000
vn -0.499998 -0.866026 0.000000
vn 0.000000 -1.000000 0.000000
vn 0.000000 -1.000000 0.000000
vn 0.499998 -0.866026 0.000000
vn 0.499998 -0.866026 0.000000
vn 0.866025 -0.500001 0.000000
vn 0.866025 -0.500001 0.000000
vn 1.000000 0.000000 0.000000
vn 1.000000 0.000000 0.000000
vn 0.000000 0.000000 -1.000000
vn 0.000000 0.000000 -1.000000
vn -0.000002 0.000000 -1.000000
vn 0.000000 0.000000 -1.000000
vn -0.000007 0.000000 -1.000000
vn -0.000007 0.000000 -1.000000
vn 0.000000 0.000000 -1.000000
vn -0.000013 0.000000 -1.000000
vn -0.000000 0.000000 -1.000000
vn 0.000000 0.000000 -1.000000
vn -0.000007 0.000000 -1.000000
vn 0.000007 0.000000 -1.000000
vn 0.000000 0.000000 -1.000000
vn 0.000000 0.000000 1.000000
vn 0.000000 0.000000 1.000000
vn 0.000000 0.000000 1.000000
vn 0.000007 0.000000 1.000000
vn 0.000007 0.000000 1.000000
vn -0.000007 0.000000 1.000000
vn -0.000007 0.000000 1.000000
vn 0.000000 0.000000 1.000000
vn 0.000007 0.000000 1.000000
vn 0.000007 0.000000 1.000000
vn -0.000007 0.000000 1.000000
vn -0.000007 0.000000 1.000000
vn 0.000000 0.000000 1.000000
s 1
g group3 pCylinder16
usemtl lambert23SG
f 169/357/433 170/361/434 182/362/435 183/358/436
f 170/363/434 171/364/437 193/365/438 182/366/435
f 171/364/437 172/367/439 192/368/440 193/365/438
f 172/349/439 173/343/441 191/346/442 192/350/440
f 173/343/441 174/344/443 190/345/444 191/346/442
f 174/344/443 175/347/445 189/348/446 190/345/444
f 175/347/445 176/351/447 188/352/448 189/348/446
f 176/369/447 177/370/449 187/371/450 188/372/448
f 177/370/449 178/373/451 186/374/452 187/371/450
f 178/359/451 179/353/453 185/356/454 186/360/452
f 179/353/453 180/354/455 184/355/456 185/356/454
f 180/354/455 169/357/433 183/358/436 184/355/456
s 2
f 170/375/457 169/376/458 181/377/459
f 171/379/460 170/375/457 181/377/459
f 172/381/461 171/379/460 181/377/459
f 173/383/462 172/381/461 181/377/459
f 174/385/463 173/383/462 181/377/459
f 175/387/464 174/385/463 181/377/459
f 176/386/465 175/387/464 181/377/459
f 177/384/466 176/386/465 181/377/459
f 178/382/467 177/384/466 181/377/459
f 179/380/468 178/382/467 181/377/459
f 180/378/469 179/380/468 181/377/459
f 169/376/458 180/378/469 181/377/459
s 3
f 186/388/470 194/389/471 187/390/472
f 191/398/473 194/389/471 192/400/474
f 184/393/475 194/389/471 185/391/476
f 192/400/474 194/389/471 193/399/477
f 189/394/478 194/389/471 190/396/479
f 185/391/476 194/389/471 186/388/470
f 183/395/480 182/397/481 194/389/471
f 190/396/479 194/389/471 191/398/473
f 187/390/472 194/389/471 188/392/482
f 183/395/480 194/389/471 184/393/475
f 194/389/471 182/397/481 193/399/477
f 188/392/482 194/389/471 189/394/478
