%YAML 1.1
%TAG !u! tag:unity3d.com,2011:
--- !u!114 &11400000
MonoBehaviour:
  m_ObjectHideFlags: 0
  m_CorrespondingSourceObject: {fileID: 0}
  m_PrefabInternal: {fileID: 0}
  m_GameObject: {fileID: 0}
  m_Enabled: 1
  m_EditorHideFlags: 0
  m_Script: {fileID: 11500000, guid: df73cb1613abd544ab75c14b3d691b8b, type: 3}
  m_Name: CarryDebrisDifficulty_Easy
  m_EditorClassIdentifier: 
  Difficulty: 1
  TypeOfGame: 0
  time: 12
  RequiredProgress: 130
  ProgressReductionPerSecond: 7
  ProgressPerClick: 3
